symbol,date,price
Astronomica,2018-07-30T05:58:20.915,567.5483333
Deuteronic,2018-07-30T05:58:20.915,304.6803571
Floral,2018-07-30T05:58:20.943,0.56625879
Galactia,2018-07-30T05:58:20.943,4980.19
Galactia,2018-07-30T05:58:20.943,4919.34
Celestial,2018-07-30T05:58:20.944,1425.97
Heliosphere,2018-07-30T05:58:20.944,91.95593023
Galactia,2018-07-30T05:58:20.944,3240.23
Celestial,2018-07-30T05:58:20.944,75.66315789
Astronomica,2018-07-30T05:58:20.944,214.90625
Jupiter,2018-07-30T05:58:20.945,85.49119048
Jupiter,2018-07-30T05:58:20.945,890.805
Galactia,2018-07-30T05:58:20.952,54.93988571
Interstella,2018-07-30T05:58:20.953,56.38532258
Heliosphere,2018-07-30T05:58:20.956,83.29989362
Koronis,2018-07-30T05:58:20.956,97.6776
Deuteronic,2018-07-30T05:58:20.957,2100.3275
Jupiter,2018-07-30T05:58:20.957,9.274240838
Eclipse,2018-07-30T05:58:20.970,10078.76
Jupiter,2018-07-30T05:58:20.970,19.12940217
Borealis,2018-07-30T05:58:20.971,529.1136364
Floral,2018-07-30T05:58:20.971,13.74862069
Deuteronic,2018-07-30T05:58:20.971,206.2290244
Celestial,2018-07-30T05:58:20.993,1421.39
Lunatic,2018-07-30T05:58:20.993,615.2933333
Galactia,2018-07-30T05:58:20.993,9690.81
Jupiter,2018-07-30T05:58:20.993,3494.76
Koronis,2018-07-30T05:58:21.013,224.0954545
Lunatic,2018-07-30T05:58:21.013,363.678
Jupiter,2018-07-30T05:58:21.465,882.78
Jupiter,2018-07-30T05:58:21.465,1193.876667
Borealis,2018-07-30T05:58:21.465,81.25253521
Interstella,2018-07-30T05:58:21.465,880.895
Heliosphere,2018-07-30T05:58:21.466,250.2090323
Floral,2018-07-30T05:58:21.470,1.384300341
Lunatic,2018-07-30T05:58:21.763,1.821590214
Interstella,2018-07-30T05:58:21.787,886.6925
Interstella,2018-07-30T05:58:21.788,29.42647059
Floral,2018-07-30T05:58:21.788,26.93
Borealis,2018-07-30T05:58:21.788,16.23369318
Koronis,2018-07-30T05:58:21.788,1248.31
Deuteronic,2018-07-30T05:58:21.791,36.90243363
Galactia,2018-07-30T05:58:21.792,3197.103333
Astronomica,2018-07-30T05:58:21.792,1701.32
Celestial,2018-07-30T05:58:21.793,4.474249201
Jupiter,2018-07-30T05:58:21.844,9.51016
Floral,2018-07-30T05:58:21.880,1.269627329
Jupiter,2018-07-30T05:58:21.881,3544.86
Lunatic,2018-07-30T05:58:21.881,14.93193277
Borealis,2018-07-30T05:58:21.881,5.819345418
Borealis,2018-07-30T05:58:21.881,44.71117188
Lunatic,2018-07-30T05:58:21.881,14.41868852
Floral,2018-07-30T05:58:21.906,103.3375
Eclipse,2018-07-30T05:58:21.919,4979.995
Galactia,2018-07-30T05:58:21.920,111.5944706
Borealis,2018-07-30T05:58:21.920,176.994375
Heliosphere,2018-07-30T05:58:21.920,590.8638462
Lunatic,2018-07-30T05:58:21.920,430.9975
Astronomica,2018-07-30T05:58:21.921,1718.695
Floral,2018-07-30T05:58:21.947,0.827707911
Koronis,2018-07-30T05:58:21.947,2524.7
Jupiter,2018-07-30T05:58:21.947,48.92763889
Jupiter,2018-07-30T05:58:21.947,3568.14
Astronomica,2018-07-30T05:58:21.947,69.39040816
Celestial,2018-07-30T05:58:21.951,3.116004415
Floral,2018-07-30T05:58:21.951,3.033308824
Astronomica,2018-07-30T05:58:21.951,841.9875
Astronomica,2018-07-30T05:58:21.952,92.67805556
Eclipse,2018-07-30T05:58:21.954,233.3672093
Jupiter,2018-07-30T05:58:21.954,515.77
Koronis,2018-07-30T05:58:21.954,364.7857143
Lunatic,2018-07-30T05:58:21.955,337.04
Interstella,2018-07-30T05:58:24.502,40.61954023
Eclipse,2018-07-30T05:58:24.687,9924.2
Lunatic,2018-07-30T05:58:24.700,6.980329218
Borealis,2018-07-30T05:58:24.700,14.39826196
Astronomica,2018-07-30T05:58:24.717,68.88791667
Celestial,2018-07-30T05:58:24.717,51.63555556
Galactia,2018-07-30T05:58:24.717,86.29504505
Eclipse,2018-07-30T05:58:24.741,10018.55
Deuteronic,2018-07-30T05:58:24.742,932.3366667
Eclipse,2018-07-30T05:58:24.742,2022.556
Galactia,2018-07-30T05:58:24.742,9453.93
Floral,2018-07-30T05:58:24.762,6.032537313
Galactia,2018-07-30T05:58:24.772,444.9457143
Floral,2018-07-30T05:58:24.772,8.38875
Lunatic,2018-07-30T05:58:24.772,15.99809524
Lunatic,2018-07-30T05:58:24.772,60.6025
Floral,2018-07-30T05:58:24.780,393.63
Astronomica,2018-07-30T05:58:24.797,6.470316206
Astronomica,2018-07-30T05:58:24.797,825.4475
Jupiter,2018-07-30T05:58:24.797,243.5113333
Borealis,2018-07-30T05:58:24.797,1887.746667
Astronomica,2018-07-30T05:58:24.797,18.79169492
Celestial,2018-07-30T05:58:24.799,704.02
Jupiter,2018-07-30T05:58:24.822,739.606
Jupiter,2018-07-30T05:58:24.822,18.27160976
Lunatic,2018-07-30T05:58:24.934,5.198795181
Floral,2018-07-30T05:58:24.935,30.77769231
Deuteronic,2018-07-30T06:01:53.736,11.61601124
Celestial,2018-07-30T06:01:54.561,5.257222222
Celestial,2018-07-30T06:01:54.562,6.110087336
Heliosphere,2018-07-30T06:01:54.562,65.49896552
Jupiter,2018-07-30T06:01:54.562,5.233596127
Galactia,2018-07-30T06:01:54.563,767.36
Heliosphere,2018-07-30T06:01:54.577,85.16777778
Interstella,2018-07-30T06:01:54.577,27.41323077
Astronomica,2018-07-30T06:01:54.577,366.0977778
Floral,2018-07-30T06:01:54.577,201.995
Heliosphere,2018-07-30T06:01:54.577,26.36809028
Borealis,2018-07-30T06:01:54.579,51.98954545
Astronomica,2018-07-30T06:01:54.579,20.49761006
Deuteronic,2018-07-30T06:01:54.579,131.9566667
Lunatic,2018-07-30T06:01:54.579,125.115
Jupiter,2018-07-30T06:01:54.579,3760.62
Celestial,2018-07-30T06:01:54.652,6.955979899
Heliosphere,2018-07-30T06:01:54.652,178.8938095
Deuteronic,2018-07-30T06:01:54.656,122.358806
Jupiter,2018-07-30T06:01:55.467,18.12101942
Lunatic,2018-07-30T06:01:55.468,433.4125
Deuteronic,2018-07-30T06:01:55.468,9.296264368
Galactia,2018-07-30T06:01:55.468,202.3364444
Celestial,2018-07-30T06:01:55.468,199.5071429
Floral,2018-07-30T06:01:55.468,8.0248
Jupiter,2018-07-30T06:01:55.470,246.6846667
Galactia,2018-07-30T06:01:55.470,35.34223529
Koronis,2018-07-30T06:01:55.470,7.70853211
Jupiter,2018-07-30T06:01:55.492,1869.255
Celestial,2018-07-30T06:01:55.492,3.233240093
Koronis,2018-07-30T06:01:55.492,2492.62
Jupiter,2018-07-30T06:01:55.493,1260.213333
Eclipse,2018-07-30T06:01:55.495,370.8144444
Heliosphere,2018-07-30T06:01:55.589,1488.23
Galactia,2018-07-30T06:01:55.589,64.58724638
Lunatic,2018-07-30T06:01:55.595,14.92384615
Heliosphere,2018-07-30T06:01:55.596,45.01646707
Galactia,2018-07-30T06:01:55.596,1797.494
Lunatic,2018-07-30T06:01:55.596,2.064599761
Eclipse,2018-07-30T06:01:55.596,430.536087
Koronis,2018-07-30T06:01:55.598,6.731470588
Koronis,2018-07-30T06:01:55.598,621.865
Koronis,2018-07-30T06:01:55.598,2513.9
Lunatic,2018-07-30T06:01:55.598,17.51680412
Jupiter,2018-07-30T06:01:55.598,55.26926471
Koronis,2018-07-30T06:02:02.317,846.5733333
Eclipse,2018-07-30T06:02:02.318,65.78703947
Interstella,2018-07-30T06:02:02.318,68.93156863
Celestial,2018-07-30T06:02:02.318,1400.93
Deuteronic,2018-07-30T06:02:02.318,3987.325
Galactia,2018-07-30T06:02:02.318,65.30007194
Astronomica,2018-07-30T06:02:02.331,10.72883721
Astronomica,2018-07-30T06:02:02.332,543.635
Koronis,2018-07-30T06:02:02.335,284.8455556
Deuteronic,2018-07-30T06:02:02.335,99.03679012
Galactia,2018-07-30T06:02:02.335,4482.075
Floral,2018-07-30T06:02:02.335,30.63538462
Heliosphere,2018-07-30T06:02:02.335,31.81119658
Koronis,2018-07-30T06:02:02.335,2588.34
Borealis,2018-07-30T06:02:02.335,97.82711864
Eclipse,2018-07-30T06:02:02.337,107.3565957
Astronomica,2018-07-30T06:02:02.463,3.443977035
Deuteronic,2018-07-30T06:02:02.466,3953.36
Borealis,2018-07-30T06:02:02.761,10.21858929
Jupiter,2018-07-30T06:02:02.761,86.36772727
Jupiter,2018-07-30T06:02:02.761,164.153913
Celestial,2018-07-30T06:02:02.761,74.15421053
Heliosphere,2018-07-30T06:02:02.761,49.3814094
Astronomica,2018-07-30T06:02:02.764,653.382
Interstella,2018-07-30T06:02:02.764,165.352381
Celestial,2018-07-30T06:02:02.764,475.1533333
Jupiter,2018-07-30T06:02:02.764,182.0257143
Galactia,2018-07-30T06:02:02.764,135.1607463
Borealis,2018-07-30T06:02:02.764,202.3964286
Eclipse,2018-07-30T06:02:02.764,10183.83
Lunatic,2018-07-30T06:02:02.764,1703
Lunatic,2018-07-30T06:02:02.764,336.834
Floral,2018-07-30T06:02:02.841,58.01857143
Borealis,2018-07-30T06:02:02.842,48.05084034
Eclipse,2018-07-30T06:02:02.845,10082.86
Galactia,2018-07-30T06:02:02.845,57.117125
Floral,2018-07-30T06:02:02.845,5.3875
Heliosphere,2018-07-30T06:02:02.845,110.1139394
Floral,2018-07-30T06:02:02.845,0.554726302
Lunatic,2018-07-30T06:02:06.370,118.74
Borealis,2018-07-30T06:02:06.377,257.3086364
Eclipse,2018-07-30T06:02:06.387,423.7254167
Eclipse,2018-07-30T06:02:06.388,108.0694624
Galactia,2018-07-30T06:02:06.430,167.6472727
Koronis,2018-07-30T06:02:06.430,182.5885714
Astronomica,2018-07-30T06:02:06.430,3297.82
Borealis,2018-07-30T06:02:06.732,184.4922581
Jupiter,2018-07-30T06:02:06.733,949.09
Floral,2018-07-30T06:02:06.742,7.430178571
Interstella,2018-07-30T06:02:06.744,19.32701657
Deuteronic,2018-07-30T06:02:06.745,1326.64
Astronomica,2018-07-30T06:02:06.745,191.8535294
Galactia,2018-07-30T06:02:06.745,42.63018692
Jupiter,2018-07-30T06:02:06.761,163.6626087
Koronis,2018-07-30T06:02:06.976,40.99126984
Koronis,2018-07-30T06:02:06.979,4.285067114
Floral,2018-07-30T06:02:06.979,0.90595186
Lunatic,2018-07-30T06:02:06.979,415.745
Floral,2018-07-30T06:02:06.979,15.85653846
Astronomica,2018-07-30T06:02:07.048,143.0734783
Interstella,2018-07-30T06:02:07.048,135.5115385
Astronomica,2018-07-30T06:02:07.048,3320.14
Galactia,2018-07-30T06:02:07.048,200.2542222
Borealis,2018-07-30T06:02:07.048,18.37983766
Astronomica,2018-07-30T06:02:07.048,28.37646552
Interstella,2018-07-30T06:02:51.420,580.42
Borealis,2018-07-30T06:02:51.420,150.8102632
Jupiter,2018-07-30T06:02:51.423,1903.74
Galactia,2018-07-30T06:02:51.423,72.6924
Galactia,2018-07-30T06:02:51.423,289.7793548
Heliosphere,2018-07-30T06:02:51.423,17.45503563
Astronomica,2018-07-30T06:02:51.423,12.72819923
Floral,2018-07-30T06:02:51.607,420.11
Galactia,2018-07-30T06:02:51.607,13.41729607
Eclipse,2018-07-30T06:02:51.607,778.8761538
Lunatic,2018-07-30T06:02:51.609,1639.21
Koronis,2018-07-30T06:02:51.614,13.96530387
Floral,2018-07-30T06:02:51.652,2.970352113
Borealis,2018-07-30T06:02:51.652,2830.12
Koronis,2018-07-30T06:02:51.652,9.348208955
Heliosphere,2018-07-30T06:02:51.652,60.41284553
Heliosphere,2018-07-30T06:02:51.652,1879.18
Eclipse,2018-07-30T06:02:51.653,10201.96
Astronomica,2018-07-30T06:02:51.653,65.8572549
Borealis,2018-07-30T06:02:51.653,1121.126
Interstella,2018-07-30T06:02:51.653,56.46016393
Eclipse,2018-07-30T06:02:51.656,55.38956989
Deuteronic,2018-07-30T06:02:51.988,8.588165236
Borealis,2018-07-30T06:02:51.995,69.442125
Galactia,2018-07-30T06:02:51.997,1787.798
Celestial,2018-07-30T06:02:51.997,4.720688525
Borealis,2018-07-30T06:02:51.997,26.11032558
Galactia,2018-07-30T06:02:51.997,215.3329268
Interstella,2018-07-30T06:02:51.997,41.87686747
Koronis,2018-07-30T06:02:51.999,1239.54
Borealis,2018-07-30T06:02:52.068,5683.49
Celestial,2018-07-30T06:02:52.070,711.44
Deuteronic,2018-07-30T06:02:52.070,22.69310345
Lunatic,2018-07-30T06:02:52.070,1.811315789
Heliosphere,2018-07-30T06:02:52.070,47.4831875
Deuteronic,2018-07-30T06:02:52.070,99.81128205
Celestial,2018-07-30T06:02:52.070,350.3325
Deuteronic,2018-07-30T06:02:52.219,116.3174242
Celestial,2018-07-30T06:02:52.247,6.473084112
Koronis,2018-07-30T06:02:52.247,613.0475
Heliosphere,2018-07-30T06:02:52.247,17.55453089
Koronis,2018-07-30T06:02:52.248,48.5806
Eclipse,2018-07-30T06:02:52.249,5196.71
Heliosphere,2018-07-30T06:02:52.254,584.1738462
Jupiter,2018-07-30T06:02:52.254,4.613743902
Galactia,2018-07-30T06:02:52.254,8.805695565
Jupiter,2018-07-30T06:02:52.254,1250.196667
Galactia,2018-07-30T06:02:52.254,518.9176471
Galactia,2018-07-30T06:02:52.730,436.421
Eclipse,2018-07-30T06:02:52.777,317.7878788
Borealis,2018-07-30T06:02:52.778,382.8653333
Galactia,2018-07-30T06:02:52.778,4315.29
Celestial,2018-07-30T06:02:52.778,349.1575
Koronis,2018-07-30T06:02:52.778,1231.97
Interstella,2018-07-30T06:02:52.778,67.46392157
Interstella,2018-07-30T06:02:52.783,386.0088889
Deuteronic,2018-07-30T06:02:52.783,7567.14
Galactia,2018-07-30T06:02:52.783,2844.353333
Astronomica,2018-07-30T06:02:52.783,38.56113636
Eclipse,2018-07-30T06:02:52.783,576.805
Astronomica,2018-07-30T06:02:52.785,673.262
Koronis,2018-07-30T06:02:52.785,9.842580645
Borealis,2018-07-30T06:02:52.785,517.5381818
Astronomica,2018-07-30T06:02:52.791,77.40545455
Eclipse,2018-07-30T06:02:52.791,10248.37
Galactia,2018-07-30T06:02:52.791,40.38645933
Floral,2018-07-30T06:02:52.802,6.40761194
Floral,2018-07-30T06:02:52.802,24.83235294
Deuteronic,2018-07-30T06:02:52.806,34.44972851
Eclipse,2018-07-30T06:02:52.806,5165.175
Lunatic,2018-07-30T06:02:52.806,18.34835165
Heliosphere,2018-07-30T06:02:52.807,7511.43
Eclipse,2018-07-30T06:02:52.807,1488.855714
Celestial,2018-07-30T06:02:52.891,12.43855856
Koronis,2018-07-30T06:02:52.891,6.182005013
Floral,2018-07-30T06:02:52.891,85.632
Lunatic,2018-07-30T06:02:52.973,44.97648649
Celestial,2018-07-30T06:02:52.975,3.669758713
Lunatic,2018-07-30T06:02:53.069,209.24125
Lunatic,2018-07-30T06:02:53.069,168.99
Deuteronic,2018-07-30T06:02:53.069,43.70988571
Lunatic,2018-07-30T06:02:53.073,4.43531746
Interstella,2018-07-30T06:02:53.073,31.89136364
Borealis,2018-07-30T06:02:53.073,1916.04
Eclipse,2018-07-30T06:02:53.073,1718.59
Eclipse,2018-07-30T06:02:53.117,5204.87
Jupiter,2018-07-30T06:02:53.117,11.28041543
Floral,2018-07-30T06:02:53.117,52.75875
Koronis,2018-07-30T06:02:53.117,222.1918182
Koronis,2018-07-30T06:02:53.117,2422.74
Borealis,2018-07-30T06:02:53.117,5812.87
Eclipse,2018-07-30T06:02:53.118,643.804375
Floral,2018-07-30T06:02:53.118,3.697672414
Deuteronic,2018-07-30T06:02:53.118,17.58622426
Floral,2018-07-30T06:02:53.118,216.34
Floral,2018-07-30T06:02:53.118,61.23
Borealis,2018-07-30T06:02:53.118,18.12833333
Celestial,2018-07-30T06:03:02.966,30.594
Koronis,2018-07-30T06:03:02.966,815.4033333
Heliosphere,2018-07-30T06:03:02.966,15.49277551
Galactia,2018-07-30T06:03:03.250,8.940545645
Galactia,2018-07-30T06:03:03.252,780.9063636
Borealis,2018-07-30T06:03:03.253,2909.085
Galactia,2018-07-30T06:03:03.253,47.74247191
Koronis,2018-07-30T06:03:03.253,617.3425
Interstella,2018-07-30T06:03:03.254,288.1691667
Lunatic,2018-07-30T06:03:03.254,565.29
Jupiter,2018-07-30T06:03:03.254,1283.206667
Astronomica,2018-07-30T06:03:03.254,228.7353333
Borealis,2018-07-30T06:03:03.254,91.45873016
Lunatic,2018-07-30T06:03:03.254,41.78365854
Koronis,2018-07-30T06:03:03.254,38.17390625
Floral,2018-07-30T06:03:03.254,17.50166667
Eclipse,2018-07-30T06:03:03.254,11.60766741
Interstella,2018-07-30T06:03:03.254,268.3523077
Koronis,2018-07-30T06:03:03.254,822.89
Jupiter,2018-07-30T06:03:03.255,141.4614815
Eclipse,2018-07-30T06:03:03.255,2057.472
Floral,2018-07-30T06:03:03.257,16.53961538
Jupiter,2018-07-30T06:03:03.257,5.478992908
Lunatic,2018-07-30T06:03:03.267,561.4966667
Heliosphere,2018-07-30T06:03:03.267,8.36254902
Interstella,2018-07-30T06:03:03.267,877.5575
Lunatic,2018-07-30T06:03:03.267,87.43631579
Celestial,2018-07-30T06:03:03.267,5.558674699
Interstella,2018-07-30T06:03:03.269,144.4770833
Deuteronic,2018-07-30T06:03:03.269,113.7458824
Koronis,2018-07-30T06:03:03.888,48.90980392
Borealis,2018-07-30T06:03:03.888,157.2702703
Deuteronic,2018-07-30T06:03:03.888,117.9065152
Galactia,2018-07-30T06:03:03.888,8.457260826
Floral,2018-07-30T06:03:03.902,12.96212121
Deuteronic,2018-07-30T06:03:04.011,522.1293333
Celestial,2018-07-30T06:03:04.011,1400.11
Jupiter,2018-07-30T06:03:04.012,6.691521368
Astronomica,2018-07-30T06:03:04.012,6.821546185
Heliosphere,2018-07-30T06:03:04.012,158.1520408
Lunatic,2018-07-30T06:03:04.012,8.898235294
Borealis,2018-07-30T06:03:04.012,12.29165272
Floral,2018-07-30T06:03:04.012,38.43636364
Heliosphere,2018-07-30T06:03:04.012,3908.975
Galactia,2018-07-30T06:03:04.033,9.499919817
Deuteronic,2018-07-30T06:03:04.033,3863.765
Deuteronic,2018-07-30T06:03:05.037,14.34791513
Deuteronic,2018-07-30T06:03:05.037,178.2965116
Jupiter,2018-07-30T06:03:05.038,777.224
Floral,2018-07-30T06:03:05.038,105.4075
Celestial,2018-07-30T06:03:05.038,16.53107143
Galactia,2018-07-30T06:03:05.095,913.0966667
Interstella,2018-07-30T06:03:05.137,6.535381679
Jupiter,2018-07-30T06:03:05.137,5.858115502
Eclipse,2018-07-30T06:03:05.137,220.6751064
Celestial,2018-07-30T06:03:05.137,66.83095238
Deuteronic,2018-07-30T06:03:05.157,56.83924812
Koronis,2018-07-30T06:03:05.157,47.51615385
Celestial,2018-07-30T06:03:05.157,15.02606383
Eclipse,2018-07-30T06:03:05.157,310.6745455
Koronis,2018-07-30T06:03:05.157,14.13618497
Jupiter,2018-07-30T06:03:05.157,225.3517647
Lunatic,2018-07-30T06:03:05.168,4.386973684
Deuteronic,2018-07-30T06:03:05.168,1268.645
Interstella,2018-07-30T06:03:05.169,575.1383333
Borealis,2018-07-30T06:03:05.179,423.8142857
Deuteronic,2018-07-30T06:03:05.179,3753.55
Floral,2018-07-30T06:03:05.179,71.48333333
Lunatic,2018-07-30T06:03:05.180,4.523719677
Koronis,2018-07-30T06:03:05.180,2.470296524
Interstella,2018-07-30T06:03:05.183,19.90485714
Jupiter,2018-07-30T06:03:05.199,108.7111429
Jupiter,2018-07-30T06:03:05.199,296.4530769
Interstella,2018-07-30T06:03:05.199,6.868078431
Lunatic,2018-07-30T06:03:05.208,46.86805556
Astronomica,2018-07-30T06:03:05.208,3364.22
Floral,2018-07-30T06:03:05.208,143.19
Jupiter,2018-07-30T06:03:06.911,477.75625
Jupiter,2018-07-30T06:03:06.915,1937.75
Lunatic,2018-07-30T06:03:06.915,2.533598201
Floral,2018-07-30T06:03:08.260,0.580844687
Astronomica,2018-07-30T06:03:08.260,42.19025316
Interstella,2018-07-30T06:03:08.261,207.8564706
Lunatic,2018-07-30T06:03:08.261,856.745
Astronomica,2018-07-30T06:03:08.261,23.71417266
Koronis,2018-07-30T06:03:08.864,597.0925
Jupiter,2018-07-30T06:03:08.864,101.3102632
Heliosphere,2018-07-30T06:03:08.864,2630.023333
Celestial,2018-07-30T06:03:08.883,63.45272727
Galactia,2018-07-30T06:03:08.893,4062.305
Astronomica,2018-07-30T06:03:08.894,3329.52
Koronis,2018-07-30T06:03:15.423,185.5938462
Eclipse,2018-07-30T06:03:15.424,156.1864615
Jupiter,2018-07-30T06:03:15.578,5.186888587
Interstella,2018-07-30T06:03:15.578,1165.863333
Borealis,2018-07-30T06:03:15.578,299.584
Lunatic,2018-07-30T06:03:15.578,4.454153439
Eclipse,2018-07-30T06:03:15.578,99.56242718
Borealis,2018-07-30T06:03:15.579,174.4911765
Floral,2018-07-30T06:03:15.585,427.23
Galactia,2018-07-30T06:03:15.586,16.90167355
Galactia,2018-07-30T06:03:15.586,26.48527331
Astronomica,2018-07-30T06:03:15.586,71.5973913
Celestial,2018-07-30T06:03:15.586,3.272904762
Eclipse,2018-07-30T06:03:15.591,1268.0825
Galactia,2018-07-30T06:03:15.591,12.67181679
Celestial,2018-07-30T06:03:15.594,26.58961538
Floral,2018-07-30T06:03:15.635,426.45
Lunatic,2018-07-30T06:03:15.635,1669.1
Celestial,2018-07-30T06:03:15.635,7.96
Borealis,2018-07-30T06:03:15.635,5981.95
Astronomica,2018-07-30T06:03:15.635,3330.47
Heliosphere,2018-07-30T06:03:15.635,227.676
Interstella,2018-07-30T06:03:15.663,345.967
Deuteronic,2018-07-30T06:03:15.664,290.3957692
Deuteronic,2018-07-30T06:03:15.679,22.28047904
Heliosphere,2018-07-30T06:03:16.251,8046.91
Borealis,2018-07-30T06:03:16.251,754.39125
Borealis,2018-07-30T06:03:16.251,6102.35
Celestial,2018-07-30T06:03:16.251,683.165
Galactia,2018-07-30T06:03:16.257,820.331
Eclipse,2018-07-30T06:03:18.121,48.22665094
Borealis,2018-07-30T06:03:18.121,279.8718182
Floral,2018-07-30T06:03:18.121,0.724522613
Galactia,2018-07-30T06:03:18.121,19.33030374
Floral,2018-07-30T06:03:18.121,10.14232558
Astronomica,2018-07-30T06:03:18.121,15.26481481
Koronis,2018-07-30T06:03:18.121,608.195
Koronis,2018-07-30T06:03:18.121,9.778211382
Koronis,2018-07-30T06:03:18.121,103.6656522
Heliosphere,2018-07-30T06:03:18.121,25.00147692
Koronis,2018-07-30T06:03:18.121,46.37961538
Galactia,2018-07-30T06:03:18.121,30.94613636
Deuteronic,2018-07-30T06:03:18.280,1870.6
Eclipse,2018-07-30T06:03:18.289,178.067069
Astronomica,2018-07-30T06:03:18.290,3.773564132
Borealis,2018-07-30T06:03:18.290,6092.19
Floral,2018-07-30T06:03:18.388,7.239833333
Galactia,2018-07-30T06:03:18.388,68.42881356
Deuteronic,2018-07-30T06:03:18.388,13.32120939
Heliosphere,2018-07-30T06:03:18.388,20.39766169
Celestial,2018-07-30T06:03:18.389,22.44566667
Koronis,2018-07-30T06:03:18.389,1192.125
Borealis,2018-07-30T06:03:18.389,23.99856574
Borealis,2018-07-30T06:03:18.389,6.244361925
Floral,2018-07-30T06:04:07.954,22.119
Jupiter,2018-07-30T06:04:07.954,5.585457227
Celestial,2018-07-30T06:04:07.956,332.7525
Jupiter,2018-07-30T06:04:07.956,1879.3
Floral,2018-07-30T06:04:07.956,147.8
Deuteronic,2018-07-30T06:04:07.956,1854.89
Deuteronic,2018-07-30T06:04:07.956,1865.4875
Celestial,2018-07-30T06:04:07.956,63.77428571
Borealis,2018-07-30T06:04:07.957,2010.536667
Jupiter,2018-07-30T06:04:07.957,190.59
Floral,2018-07-30T06:04:07.957,48.90444444
Floral,2018-07-30T06:04:07.958,0.714517185
Floral,2018-07-30T06:04:07.958,215.405
Astronomica,2018-07-30T06:04:07.958,411.47375
Floral,2018-07-30T06:04:07.958,28.512
Heliosphere,2018-07-30T06:04:07.958,4138.365
Heliosphere,2018-07-30T06:04:07.958,363.6426087
Galactia,2018-07-30T06:04:07.961,25.96441558
Jupiter,2018-07-30T06:04:07.976,642.5333333
Astronomica,2018-07-30T06:04:07.977,250.3
Koronis,2018-07-30T06:04:07.977,56.02619048
Celestial,2018-07-30T06:04:07.977,26.43196078
Galactia,2018-07-30T06:04:07.977,86.92703297
Floral,2018-07-30T06:04:08.187,30.37
Interstella,2018-07-30T06:04:08.187,3.823184358
Lunatic,2018-07-30T06:04:08.187,8.130492611
Jupiter,2018-07-30T06:04:08.189,780.53
Borealis,2018-07-30T06:04:09.519,142.2052381
Floral,2018-07-30T06:04:09.519,428.54
Borealis,2018-07-30T06:04:09.541,1477.7425
Interstella,2018-07-30T06:04:09.541,3383.89
Jupiter,2018-07-30T06:04:09.541,214.9416667
Deuteronic,2018-07-30T06:04:09.546,2451.533333
Jupiter,2018-07-30T06:04:09.546,5.947705167
Floral,2018-07-30T06:04:09.911,25.82705882
Heliosphere,2018-07-30T06:04:09.911,603.6421429
Astronomica,2018-07-30T06:04:10.053,84.83526316
Eclipse,2018-07-30T06:04:10.053,1135.386667
Celestial,2018-07-30T06:04:10.053,1326.96
Celestial,2018-07-30T06:04:10.053,109.6608333
Deuteronic,2018-07-30T06:04:10.053,1812.4675
Eclipse,2018-07-30T06:04:10.053,14.9062592
Floral,2018-07-30T06:04:10.059,0.873799213
Eclipse,2018-07-30T06:04:10.059,12.13184019
Deuteronic,2018-07-30T06:04:10.059,7296.71
Deuteronic,2018-07-30T06:04:10.059,89.40731707
Eclipse,2018-07-30T06:04:10.059,2478.475
Interstella,2018-07-30T06:04:10.059,309.6990909
Eclipse,2018-07-30T06:04:10.059,713.8385714
Borealis,2018-07-30T06:04:10.155,5980.51
Jupiter,2018-07-30T06:04:10.155,117.7939394
Lunatic,2018-07-30T06:04:10.155,323.132
Lunatic,2018-07-30T06:04:10.155,809.105
Astronomica,2018-07-30T06:04:10.155,3195.53
Deuteronic,2018-07-30T06:04:10.156,99.01547945
Koronis,2018-07-30T06:04:10.156,233.243
Eclipse,2018-07-30T06:04:10.156,156.98
Jupiter,2018-07-30T06:04:10.156,68.95894737
Borealis,2018-07-30T06:04:10.674,125.9619149
Koronis,2018-07-30T06:04:10.855,15.4203268
Galactia,2018-07-30T06:04:10.913,435.1127778
Celestial,2018-07-30T06:04:10.913,1302.32
Interstella,2018-07-30T06:04:10.913,1120.866667
Astronomica,2018-07-30T06:04:10.913,137.4117391
Deuteronic,2018-07-30T06:04:10.913,7123.22
Interstella,2018-07-30T06:04:10.913,13.04317647
Interstella,2018-07-30T06:04:10.932,3280.61
Astronomica,2018-07-30T06:04:10.932,532.0933333
Astronomica,2018-07-30T06:04:10.932,8.34021164
Interstella,2018-07-30T06:04:10.932,7.638125
Lunatic,2018-07-30T06:04:10.932,199.5975
Jupiter,2018-07-30T06:04:10.932,37.52783019
Eclipse,2018-07-30T06:04:10.942,192.0013462
Lunatic,2018-07-30T06:04:10.942,16.924
Galactia,2018-07-30T06:04:10.944,12.3839185
Astronomica,2018-07-30T06:04:10.944,39.45696203
Borealis,2018-07-30T06:04:10.944,6.934239257
Celestial,2018-07-30T06:04:10.944,262.366
Galactia,2018-07-30T06:04:10.945,346.1456522
Galactia,2018-07-30T06:04:10.945,423.4784211
Deuteronic,2018-07-30T06:04:10.945,539.81
Deuteronic,2018-07-30T06:04:10.945,190.6010811
Deuteronic,2018-07-30T06:04:11.112,2363.803333
Heliosphere,2018-07-30T06:04:11.113,142.4096667
Floral,2018-07-30T06:04:11.116,89.494
Koronis,2018-07-30T06:04:11.116,1190.98
Floral,2018-07-30T06:04:11.116,0.457024793
Borealis,2018-07-30T06:04:11.117,15.19691517
Astronomica,2018-07-30T06:04:11.122,9.821178344
Floral,2018-07-30T06:04:11.122,151.1966667
Lunatic,2018-07-30T06:04:11.122,326.534
Borealis,2018-07-30T06:04:11.122,1492.4975
Galactia,2018-07-30T06:04:11.122,993.7875
Interstella,2018-07-30T06:04:11.122,18.98912791
Jupiter,2018-07-30T06:04:11.123,73.27872727
Galactia,2018-07-30T06:04:11.123,22.14208451
Eclipse,2018-07-30T06:04:11.145,197.4622
Interstella,2018-07-30T06:04:11.151,1097.333333
Galactia,2018-07-30T06:04:11.151,11.54620087
Astronomica,2018-07-30T06:04:11.151,389.57625
Lunatic,2018-07-30T06:04:11.151,30.71433962
Heliosphere,2018-07-30T06:04:11.151,18.78427015
Deuteronic,2018-07-30T06:04:11.151,205.3341176
Jupiter,2018-07-30T06:04:11.151,7.164946237
Eclipse,2018-07-30T06:04:11.151,2487.8725
Astronomica,2018-07-30T06:04:11.252,4.910234009
Lunatic,2018-07-30T06:04:11.252,125.9184615
Astronomica,2018-07-30T06:04:11.252,518.9233333
Eclipse,2018-07-30T06:04:11.252,436.5634783
Floral,2018-07-30T06:04:11.252,1.063608491
Deuteronic,2018-07-30T06:04:11.252,110.9359677
Borealis,2018-07-30T06:04:11.252,737.0225
Galactia,2018-07-30T06:04:11.252,320.0008
Koronis,2018-07-30T06:04:11.254,2407.79
Koronis,2018-07-30T06:04:11.254,26.20021505
Borealis,2018-07-30T06:04:11.254,2910.65
Celestial,2018-07-30T06:04:12.428,165.45625
Celestial,2018-07-30T06:04:12.428,445.6633333
Lunatic,2018-07-30T06:04:12.428,322.646
Koronis,2018-07-30T06:04:12.428,61.60925
Astronomica,2018-07-30T06:04:12.428,34.12543478
Jupiter,2018-07-30T06:04:12.428,8.8222
Eclipse,2018-07-30T06:04:12.428,19.09669811
Deuteronic,2018-07-30T06:04:12.439,8.50879397
Borealis,2018-07-30T06:04:12.439,10.66509058
Interstella,2018-07-30T06:04:12.591,39.97012048
Lunatic,2018-07-30T06:04:12.591,1631.99
Lunatic,2018-07-30T06:04:12.618,412.21
Koronis,2018-07-30T06:04:12.618,14.78472727
Lunatic,2018-07-30T06:04:12.618,128.5815385
Deuteronic,2018-07-30T06:04:12.672,59.09123894
Eclipse,2018-07-30T06:04:12.672,59.40372093
Jupiter,2018-07-30T06:04:12.673,655.5533333
Eclipse,2018-07-30T06:04:12.673,373.7944444
Eclipse,2018-07-30T06:04:12.673,848.3433333
Eclipse,2018-07-30T06:04:12.674,570.5838889
Borealis,2018-07-30T06:04:12.674,371.63625
Borealis,2018-07-30T06:04:12.674,49.44789916
Interstella,2018-07-30T06:04:12.674,11.10740864
Astronomica,2018-07-30T06:04:12.683,62.1164
Eclipse,2018-07-30T06:04:12.683,2073.362
Deuteronic,2018-07-30T06:04:12.685,3293.45
Lunatic,2018-07-30T06:04:12.685,823.21
Jupiter,2018-07-30T06:04:12.689,28.62374101
Jupiter,2018-07-30T06:04:12.689,47.37376471
Celestial,2018-07-30T06:04:12.689,88.10266667
Lunatic,2018-07-30T06:04:12.689,12.69410853
Astronomica,2018-07-30T06:04:12.689,5.102276423
Interstella,2018-07-30T06:04:12.689,122.6207407
Koronis,2018-07-30T06:04:12.689,2470.33
Floral,2018-07-30T06:04:12.689,89.418
Borealis,2018-07-30T06:04:12.689,660.4155556
Eclipse,2018-07-30T06:04:12.689,10461.28
Lunatic,2018-07-30T06:04:12.809,8.933135135
Heliosphere,2018-07-30T06:04:12.809,2135.6275
Lunatic,2018-07-30T06:04:12.810,4.783117647
Heliosphere,2018-07-30T06:04:12.810,704.7883333
Koronis,2018-07-30T06:04:12.810,831.3066667
Floral,2018-07-30T06:04:12.810,15.046
Deuteronic,2018-07-30T06:04:12.810,88.86986301
Borealis,2018-07-30T06:04:12.811,28.01280952
Heliosphere,2018-07-30T06:04:12.812,45.45569149
Borealis,2018-07-30T06:04:12.818,138.247907
Heliosphere,2018-07-30T06:04:12.818,862.805
Astronomica,2018-07-30T06:04:12.818,3111.11
Astronomica,2018-07-30T06:04:12.818,1539.125
Deuteronic,2018-07-30T06:04:12.818,250.5123077
Deuteronic,2018-07-30T06:04:12.818,62.2684466
Jupiter,2018-07-30T06:04:12.819,65.48688525
Jupiter,2018-07-30T06:04:12.819,17.87792793
Heliosphere,2018-07-30T06:04:12.819,725.0633333
Borealis,2018-07-30T06:04:12.819,19.63043333
Borealis,2018-07-30T06:04:12.865,5945.37
Borealis,2018-07-30T06:04:12.865,1959.823333
Galactia,2018-07-30T06:04:12.865,7917.62
Koronis,2018-07-30T06:04:12.889,2529.93
Galactia,2018-07-30T06:04:12.890,15.79221344
Jupiter,2018-07-30T06:04:12.890,4022.97
Koronis,2018-07-30T06:04:12.890,5.372989247
Interstella,2018-07-30T06:04:12.890,4.924992614
Astronomica,2018-07-30T06:04:12.890,41.93716216
Galactia,2018-07-30T06:04:12.891,66.12295082
Galactia,2018-07-30T06:04:12.891,66.90563025
Borealis,2018-07-30T06:04:13.029,5933.73
Eclipse,2018-07-30T06:04:13.030,753.695
Celestial,2018-07-30T06:04:13.030,39.39393939
Floral,2018-07-30T06:04:14.089,1.265258856
Koronis,2018-07-30T06:04:14.089,841.6733333
Lunatic,2018-07-30T06:04:14.171,23.19535211
Celestial,2018-07-30T06:04:14.171,1.392323561
Borealis,2018-07-30T06:04:14.171,10.01548552
Koronis,2018-07-30T06:04:14.177,55.412
Koronis,2018-07-30T06:04:16.835,64.95684211
Celestial,2018-07-30T06:04:16.835,423.07
Floral,2018-07-30T06:04:16.835,465.5
Koronis,2018-07-30T06:04:16.838,11.28438914
Galactia,2018-07-30T06:04:16.853,20.98033943
Celestial,2018-07-30T06:04:16.868,1.653984476
Astronomica,2018-07-30T06:04:16.870,9.632915361
Deuteronic,2018-07-30T06:04:16.870,174.2159459
Interstella,2018-07-30T06:04:16.870,19.38982353
Eclipse,2018-07-30T06:04:16.878,1157.872222
Jupiter,2018-07-30T06:04:16.878,22.6725
Koronis,2018-07-30T06:04:16.878,41.83457627
Koronis,2018-07-30T06:04:16.878,6.172020202
Lunatic,2018-07-30T06:04:16.879,103.49
Heliosphere,2018-07-30T06:04:16.880,366.5941667
Eclipse,2018-07-30T06:04:16.880,5157.205
Deuteronic,2018-07-30T06:04:16.880,12.55003876
Interstella,2018-07-30T06:04:16.921,474.1142857
Koronis,2018-07-30T06:04:16.921,12.86473958
Celestial,2018-07-30T06:04:16.922,2.291839709
Celestial,2018-07-30T06:04:16.922,9.367272727
Lunatic,2018-07-30T06:04:16.922,1635.84
Eclipse,2018-07-30T06:04:16.925,41.29174089
Interstella,2018-07-30T06:04:16.925,3281.69
Floral,2018-07-30T06:04:16.925,0.611015424
Koronis,2018-07-30T06:04:16.925,7.724763407
Celestial,2018-07-30T06:04:16.944,1.447955865
Koronis,2018-07-30T06:04:16.945,3.724823349
Heliosphere,2018-07-30T06:04:16.945,8900.85
Deuteronic,2018-07-30T06:04:16.946,46.79517986
Koronis,2018-07-30T06:04:16.947,52.03468085
Astronomica,2018-07-30T06:04:16.947,55.38410714
Eclipse,2018-07-30T06:04:16.947,201.9764
Lunatic,2018-07-30T06:04:16.955,18.40866667
Koronis,2018-07-30T06:04:16.955,14.27410405
Interstella,2018-07-30T06:04:16.955,1101.143333
Eclipse,2018-07-30T06:04:16.955,848.105
Deuteronic,2018-07-30T06:04:17.054,6411.04
Interstella,2018-07-30T06:04:17.054,63.99269231
Galactia,2018-07-30T06:04:17.054,11.59501462
Eclipse,2018-07-30T06:04:17.061,183.3544643
Koronis,2018-07-30T06:04:17.062,59.41095238
Floral,2018-07-30T06:04:17.062,47.742
Astronomica,2018-07-30T06:04:17.062,3.812314251
Astronomica,2018-07-30T06:04:17.062,36.39816092
Jupiter,2018-07-30T06:04:17.063,1320.433333
Astronomica,2018-07-30T06:04:17.063,208.668
Celestial,2018-07-30T06:04:17.068,112.4681818
Deuteronic,2018-07-30T06:04:17.068,67.16244681
Astronomica,2018-07-30T06:04:17.068,6.028618677
Lunatic,2018-07-30T06:04:17.068,4.324378238
Borealis,2018-07-30T06:04:17.072,5927.77
Floral,2018-07-30T06:04:17.072,36.88153846
Jupiter,2018-07-30T06:04:17.072,1966.49
Galactia,2018-07-30T06:04:17.075,1601.198
Interstella,2018-07-30T06:04:17.075,65.62784314
Galactia,2018-07-30T06:04:17.075,3950.94
Eclipse,2018-07-30T06:04:17.075,845.95
Floral,2018-07-30T06:04:17.075,1.03112069
Koronis,2018-07-30T06:04:17.144,4.650994475
Floral,2018-07-30T06:04:19.669,237.705
Jupiter,2018-07-30T06:04:19.673,126.0709677
Eclipse,2018-07-30T06:04:19.738,854.1766667
Astronomica,2018-07-30T06:04:19.738,133.3721739
Astronomica,2018-07-30T06:04:19.738,58.43867925
Deuteronic,2018-07-30T06:04:19.742,11.87977055
Borealis,2018-07-30T06:04:20.151,351.52
Galactia,2018-07-30T06:04:20.151,650.2116667
Celestial,2018-07-30T06:04:20.151,88.90857143
Deuteronic,2018-07-30T06:04:20.151,1560.925
Borealis,2018-07-30T06:04:20.151,301.6015
Jupiter,2018-07-30T06:04:20.165,53.91333333
Lunatic,2018-07-30T06:04:20.165,241.16
Interstella,2018-07-30T06:04:20.171,110.2636667
Interstella,2018-07-30T06:04:20.183,87.86605263
Galactia,2018-07-30T06:04:20.183,1927.1525
Heliosphere,2018-07-30T06:04:20.194,817.1245455
Celestial,2018-07-30T06:04:20.194,19.27615385
Astronomica,2018-07-30T06:04:20.194,49.48096774
Galactia,2018-07-30T06:04:20.194,1940.9175
Deuteronic,2018-07-30T06:04:20.194,34.50337079
Eclipse,2018-07-30T06:04:20.199,118.5556322
Celestial,2018-07-30T06:04:20.199,308.9975
Koronis,2018-07-30T06:04:20.199,179.0071429
Koronis,2018-07-30T06:04:20.199,845.61
Eclipse,2018-07-30T06:04:20.199,104.9291753
Interstella,2018-07-30T06:04:20.199,562.045
Lunatic,2018-07-30T06:04:20.199,188.3022222
Interstella,2018-07-30T06:04:20.199,243.0257143
Celestial,2018-07-30T06:04:20.199,2.716146993
Koronis,2018-07-30T06:04:20.199,853.46
Heliosphere,2018-07-30T06:04:20.208,988.3888889
Galactia,2018-07-30T06:04:20.208,3910.355
Koronis,2018-07-30T06:04:20.208,135.7926316
Lunatic,2018-07-30T06:04:20.208,93.40444444
Interstella,2018-07-30T06:04:20.209,4.994769001
Interstella,2018-07-30T06:04:20.209,76.78209302
Interstella,2018-07-30T06:04:20.209,653.922
Jupiter,2018-07-30T06:04:20.209,5.57367052
Lunatic,2018-07-30T06:04:20.209,2.100998767
Interstella,2018-07-30T06:04:20.209,18.65277457
Floral,2018-07-30T06:04:20.209,28.37352941
Borealis,2018-07-30T06:04:20.209,91.89215385
Astronomica,2018-07-30T06:04:20.209,3043.11
Interstella,2018-07-30T06:04:20.209,3178.97
Eclipse,2018-07-30T06:04:20.209,718.6985714
Borealis,2018-07-30T06:04:20.211,24.21176707
Eclipse,2018-07-30T06:04:20.212,5069.98
Deuteronic,2018-07-30T06:04:21.968,672.26
Galactia,2018-07-30T06:04:21.968,715.0072727
Lunatic,2018-07-30T06:04:21.968,12.43369565
Koronis,2018-07-30T06:04:21.968,236.6845455
Galactia,2018-07-30T06:04:21.968,98.51227848
Interstella,2018-07-30T06:04:21.968,89.12722222
Heliosphere,2018-07-30T06:04:21.980,41.07118721
Eclipse,2018-07-30T06:04:21.985,113.5751111
Koronis,2018-07-30T06:04:22.024,14.09535519
Deuteronic,2018-07-30T06:04:22.027,15.96955381
Galactia,2018-07-30T06:04:22.027,700.3418182
Deuteronic,2018-07-30T06:04:22.027,64.39894737
Celestial,2018-07-30T06:04:22.027,3.446666667
Koronis,2018-07-30T06:04:22.027,426.5266667
Galactia,2018-07-30T06:04:22.027,7615.83
Eclipse,2018-07-30T06:04:22.027,273.0751351
Borealis,2018-07-30T06:04:22.029,14.31004796
Interstella,2018-07-30T06:04:22.029,73.74395349
Lunatic,2018-07-30T06:04:22.029,2.40662465
Galactia,2018-07-30T06:04:22.029,7681.26
Galactia,2018-07-30T06:04:22.030,1085.58
Heliosphere,2018-07-30T06:04:22.034,262.4932353
Lunatic,2018-07-30T06:04:22.039,9.42576087
Heliosphere,2018-07-30T06:04:22.039,180.5302
Floral,2018-07-30T06:04:22.041,69.6
Koronis,2018-07-30T06:04:22.041,253.335
Galactia,2018-07-30T06:04:22.041,1879.155
Galactia,2018-07-30T06:04:22.092,96.64844156
Deuteronic,2018-07-30T06:04:22.092,1505.51
Eclipse,2018-07-30T06:04:22.092,49.96675
Borealis,2018-07-30T06:04:22.092,844.8242857
Deuteronic,2018-07-30T06:04:22.092,179.5793939
Deuteronic,2018-07-30T06:04:22.101,270.3718182
Deuteronic,2018-07-30T06:04:22.101,308.5552632
Floral,2018-07-30T06:04:22.101,44.77454545
Interstella,2018-07-30T06:04:22.112,319.108
Interstella,2018-07-30T06:04:22.112,131.4341667
Astronomica,2018-07-30T06:04:22.113,375.91125
Borealis,2018-07-30T06:04:22.113,597.277
Eclipse,2018-07-30T06:04:22.118,20.63991803
Koronis,2018-07-30T06:04:22.118,4.48854386
Lunatic,2018-07-30T06:04:22.118,60.08482759
Astronomica,2018-07-30T06:04:22.118,17.45614943
Borealis,2018-07-30T06:04:22.118,6028.56
Interstella,2018-07-30T06:04:22.118,4.439857752
Deuteronic,2018-07-30T06:04:22.118,66.99034091
Floral,2018-07-30T06:04:22.506,0.738983558
Koronis,2018-07-30T06:04:22.506,1263.965
Astronomica,2018-07-30T06:04:22.506,1532.32
Eclipse,2018-07-30T06:04:22.506,18.42085145
Astronomica,2018-07-30T06:04:23.577,67.30543478
Astronomica,2018-07-30T06:04:23.577,8.809454023
Borealis,2018-07-30T06:04:23.577,48.75232
Jupiter,2018-07-30T06:04:23.577,12.73654485
Celestial,2018-07-30T06:04:23.583,595.975
Heliosphere,2018-07-30T06:04:23.583,131.4682353
Deuteronic,2018-07-30T06:04:23.585,30.40031414
Celestial,2018-07-30T06:04:23.585,146.91875
Floral,2018-07-30T06:04:38.468,247
Borealis,2018-07-30T06:04:38.468,6.970984163
Borealis,2018-07-30T06:04:38.469,6235.34
Heliosphere,2018-07-30T06:04:38.469,1771.554
Heliosphere,2018-07-30T06:04:38.469,4387.635
Koronis,2018-07-30T06:04:38.479,16.77302013
Jupiter,2018-07-30T06:04:40.424,1269.57
Heliosphere,2018-07-30T06:04:40.473,2891.23
Deuteronic,2018-07-30T06:04:40.473,116.6436
Galactia,2018-07-30T06:04:42.953,139.1392453
Floral,2018-07-30T06:04:47.011,503.64
Eclipse,2018-07-30T06:04:47.012,1467.444286
Jupiter,2018-07-30T06:04:47.012,257.5533333
Jupiter,2018-07-30T06:04:47.012,85.076
Jupiter,2018-07-30T06:04:47.012,97.44589744
Eclipse,2018-07-30T06:05:41.141,53.39469072
Koronis,2018-07-30T06:05:41.143,26.01608247
Galactia,2018-07-30T06:05:41.143,1487.542
Celestial,2018-07-30T06:05:41.143,13.83895349
Astronomica,2018-07-30T06:05:41.143,619.148
Celestial,2018-07-30T06:05:41.143,2.561437908
Deuteronic,2018-07-30T06:05:41.152,1434.495
Borealis,2018-07-30T06:05:41.152,449.4014286
Jupiter,2018-07-30T06:05:41.152,1282.616667
Heliosphere,2018-07-30T06:05:41.152,8762.6
Eclipse,2018-07-30T06:05:41.153,5227.105
Koronis,2018-07-30T06:05:41.156,141.3527778
Floral,2018-07-30T06:05:41.175,0.975391969
Astronomica,2018-07-30T06:05:41.175,35.58511628
Koronis,2018-07-30T06:05:41.176,1260.135
Interstella,2018-07-30T06:05:41.176,1541.93
Interstella,2018-07-30T06:05:41.176,1554.54
Heliosphere,2018-07-30T06:05:41.176,57.85143791
Interstella,2018-07-30T06:05:41.176,97.778125
Floral,2018-07-30T06:05:41.524,55.85111111
Jupiter,2018-07-30T06:05:41.524,1911.715
Floral,2018-07-30T06:05:41.524,0.586202091
Koronis,2018-07-30T06:05:41.526,1273.245
Lunatic,2018-07-30T06:05:41.526,1774.96
Koronis,2018-07-30T06:05:41.534,2571.81
Heliosphere,2018-07-30T06:05:41.535,2977.09
Borealis,2018-07-30T06:05:41.535,94.68462687
Koronis,2018-07-30T06:05:41.537,2601.05
Interstella,2018-07-30T06:05:41.566,54.32310345
Celestial,2018-07-30T06:05:41.566,52.70545455
Deuteronic,2018-07-30T06:05:41.584,384.0606667
Floral,2018-07-30T06:05:41.598,128.27
Borealis,2018-07-30T06:05:41.598,36.07189655
Eclipse,2018-07-30T06:05:41.598,585.4366667
Astronomica,2018-07-30T06:05:41.617,86.68771429
Interstella,2018-07-30T06:05:41.617,1040.56
Eclipse,2018-07-30T06:05:41.617,401.3157692
Celestial,2018-07-30T06:05:41.623,18.2421875
Galactia,2018-07-30T06:05:41.623,9.37994898
Borealis,2018-07-30T06:05:41.624,117.1296296
Astronomica,2018-07-30T06:05:41.626,1529.7
Koronis,2018-07-30T06:05:41.626,87.559
Lunatic,2018-07-30T06:05:41.626,438.12
Deuteronic,2018-07-30T06:05:41.626,1446.7675
Heliosphere,2018-07-30T06:05:41.626,9015.33
Floral,2018-07-30T06:05:41.626,4.817809524
Floral,2018-07-30T06:05:41.626,5.1368
Floral,2018-07-30T06:05:41.626,5.69989011
Floral,2018-07-30T06:05:41.626,12.2997619
Galactia,2018-07-30T06:05:41.626,308.3654167
Koronis,2018-07-30T06:05:41.626,1300.39
Heliosphere,2018-07-30T06:05:41.630,433.5247619
Celestial,2018-07-30T06:05:41.651,8.876434109
Lunatic,2018-07-30T06:05:41.651,14.90235294
Celestial,2018-07-30T06:05:41.651,20.31892857
Koronis,2018-07-30T06:05:41.651,80.3725
Celestial,2018-07-30T06:05:41.668,19.5240678
Celestial,2018-07-30T06:05:42.042,18.51380952
Galactia,2018-07-30T06:05:42.065,63.84692308
Galactia,2018-07-30T06:05:42.065,20.82385915
Jupiter,2018-07-30T06:05:42.066,117.3760606
Interstella,2018-07-30T06:05:42.068,442.4728571
Deuteronic,2018-07-30T06:05:42.068,19.61655405
Astronomica,2018-07-30T06:05:42.096,3088.62
Heliosphere,2018-07-30T06:05:42.096,118.5684211
Galactia,2018-07-30T06:05:42.096,3653.455
Interstella,2018-07-30T06:05:42.096,26.63365217
Heliosphere,2018-07-30T06:05:45.261,9102.82
Astronomica,2018-07-30T06:05:45.261,9.011911765
Astronomica,2018-07-30T06:05:45.268,442.81
Astronomica,2018-07-30T06:05:45.268,284.5609091
Interstella,2018-07-30T06:05:45.268,90.85882353
Floral,2018-07-30T06:05:45.268,506.7
Celestial,2018-07-30T06:05:45.268,6.82622093
Borealis,2018-07-30T06:05:49.567,164.9189474
Koronis,2018-07-30T06:05:49.567,37.13071429
Lunatic,2018-07-30T06:05:49.567,31.99142857
Celestial,2018-07-30T06:05:49.567,28.24142857
Deuteronic,2018-07-30T06:05:49.567,265.2731818
Floral,2018-07-30T06:05:49.605,28.52166667
Borealis,2018-07-30T06:05:49.628,10.72277496
Eclipse,2018-07-30T06:05:49.633,67.9
Jupiter,2018-07-30T06:05:49.637,980.285
Lunatic,2018-07-30T06:05:49.638,254.3042857
Koronis,2018-07-30T06:05:49.661,1286.075
Galactia,2018-07-30T06:05:49.674,7373.69
Koronis,2018-07-30T06:05:49.674,5.650888889
Borealis,2018-07-30T06:05:49.674,209.0436667
Jupiter,2018-07-30T06:05:49.674,111.174
Eclipse,2018-07-30T06:05:49.674,786.3669231
Lunatic,2018-07-30T06:05:49.675,8.746372549
Floral,2018-07-30T06:05:49.693,45.94181818
Celestial,2018-07-30T06:05:49.695,20.175
Floral,2018-07-30T06:05:49.695,2.744615385
Eclipse,2018-07-30T06:05:58.561,5155.815
Interstella,2018-07-30T06:05:58.697,3045.11
Floral,2018-07-30T06:05:58.698,30.865625
Interstella,2018-07-30T06:05:58.698,176.7617647
Koronis,2018-07-30T06:05:58.850,214.1575
Galactia,2018-07-30T06:05:58.850,88.83207317
Jupiter,2018-07-30T06:05:58.850,7.948444444
Borealis,2018-07-30T06:05:58.888,32.03954545
Interstella,2018-07-30T06:05:58.888,270.2972727
Borealis,2018-07-30T06:05:58.888,184.7332353
Lunatic,2018-07-30T06:05:58.888,35.8362
Lunatic,2018-07-30T06:05:58.890,181
Galactia,2018-07-30T06:05:58.890,21.10374269
Deuteronic,2018-07-30T06:05:58.891,150.3641026
Jupiter,2018-07-30T06:05:58.891,3.992502503
Lunatic,2018-07-30T06:05:58.891,5.87283871
Interstella,2018-07-30T06:05:58.891,586.382
Jupiter,2018-07-30T06:05:58.891,33.93697479
Astronomica,2018-07-30T06:05:58.891,38.788375
Interstella,2018-07-30T06:05:58.891,32.80033333
Lunatic,2018-07-30T06:05:58.891,28.54968254
Galactia,2018-07-30T06:05:58.894,18.61205729
Galactia,2018-07-30T06:05:58.895,2399.043333
Celestial,2018-07-30T06:05:59.003,231.462
Lunatic,2018-07-30T06:05:59.015,226.4
Koronis,2018-07-30T06:05:59.015,6.634757033
Lunatic,2018-07-30T06:05:59.017,24.63364865
Floral,2018-07-30T06:05:59.017,48.715
Borealis,2018-07-30T06:06:00.072,79.76628205
Deuteronic,2018-07-30T06:06:00.128,5888.26
Deuteronic,2018-07-30T06:06:00.131,44.61853846
Galactia,2018-07-30T06:06:00.203,647.46
Deuteronic,2018-07-30T06:06:00.206,12.81528634
Borealis,2018-07-30T06:06:00.206,440.5807143
Astronomica,2018-07-30T06:06:00.226,93.08757576
Koronis,2018-07-30T06:06:00.232,53.47520833
Floral,2018-07-30T06:06:00.236,1.667508532
Koronis,2018-07-30T06:06:00.236,3.123588163
Astronomica,2018-07-30T06:06:02.042,3106.21
Eclipse,2018-07-30T06:06:02.043,67.12716129
Deuteronic,2018-07-30T06:06:02.043,5840.34
Galactia,2018-07-30T06:06:02.043,7041.79
Deuteronic,2018-07-30T06:06:02.044,42.5242029
Borealis,2018-07-30T06:06:02.046,18.7625
Galactia,2018-07-30T06:06:02.047,15.55289532
Interstella,2018-07-30T06:06:02.049,3.495594238
Celestial,2018-07-30T06:06:02.049,12.81384615
Deuteronic,2018-07-30T06:06:02.049,53.05153153
Floral,2018-07-30T06:06:02.050,34.54214286
Koronis,2018-07-30T06:06:02.050,37.02985507
Floral,2018-07-30T06:06:02.050,15.1796875
Floral,2018-07-30T06:06:02.050,2.114913043
Jupiter,2018-07-30T06:06:02.066,4.785053763
Heliosphere,2018-07-30T06:06:02.066,1022.3
Astronomica,2018-07-30T06:06:02.066,7.679025
Galactia,2018-07-30T06:06:02.066,864.06125
Astronomica,2018-07-30T06:06:02.066,1551.125
Lunatic,2018-07-30T06:06:02.066,12.95887324
Celestial,2018-07-30T06:06:02.066,4.051034483
Jupiter,2018-07-30T06:06:02.066,176.3826087
Lunatic,2018-07-30T06:06:02.067,41.99772727
Borealis,2018-07-30T06:06:02.069,23.53078652
Interstella,2018-07-30T06:06:02.070,17.12047619
Galactia,2018-07-30T06:06:02.070,211.4227273
Heliosphere,2018-07-30T06:06:02.077,69.53793893
Jupiter,2018-07-30T06:06:02.077,8.511962025
Astronomica,2018-07-30T06:06:02.079,13.28917749
Interstella,2018-07-30T06:06:02.079,7.87175
Heliosphere,2018-07-30T06:06:02.079,9205.88
Jupiter,2018-07-30T06:06:02.079,667.1983333
Heliosphere,2018-07-30T06:06:02.079,303.9243333
Celestial,2018-07-30T06:06:02.079,19.4095
Eclipse,2018-07-30T06:06:02.095,514.5245
Floral,2018-07-30T06:06:02.101,49.575
Interstella,2018-07-30T06:06:02.101,116.5329167
Astronomica,2018-07-30T06:06:02.101,112.5540741
Borealis,2018-07-30T06:06:02.101,53.07615385
Deuteronic,2018-07-30T06:06:02.102,48.76865546
Eclipse,2018-07-30T06:06:02.102,5090.645
Galactia,2018-07-30T06:06:02.102,15.24479029
Floral,2018-07-30T06:06:02.102,121.6025
Galactia,2018-07-30T06:06:02.203,24.96737226
