[
  {
    "symbol": "Astronomica",
    "date": "2018-07-30T05:58:20.915",
    "price": 567.5483333
  },
  {
    "symbol": "Deuteronic",
    "date": "2018-07-30T05:58:20.915",
    "price": 304.6803571
  },
  {
    "symbol": "Floral",
    "date": "2018-07-30T05:58:20.943",
    "price": 0.56625879
  },
  {
    "symbol": "Galactia",
    "date": "2018-07-30T05:58:20.943",
    "price": 4980.19
  },
  {
    "symbol": "Galactia",
    "date": "2018-07-30T05:58:20.943",
    "price": 4919.34
  },
  {
    "symbol": "Celestial",
    "date": "2018-07-30T05:58:20.944",
    "price": 1425.97
  },
  {
    "symbol": "Heliosphere",
    "date": "2018-07-30T05:58:20.944",
    "price": 91.95593023
  },
  {
    "symbol": "Galactia",
    "date": "2018-07-30T05:58:20.944",
    "price": 3240.23
  },
  {
    "symbol": "Celestial",
    "date": "2018-07-30T05:58:20.944",
    "price": 75.66315789
  },
  {
    "symbol": "Astronomica",
    "date": "2018-07-30T05:58:20.944",
    "price": 214.90625
  },
  {
    "symbol": "Jupiter",
    "date": "2018-07-30T05:58:20.945",
    "price": 85.49119048
  },
  {
    "symbol": "Jupiter",
    "date": "2018-07-30T05:58:20.945",
    "price": 890.805
  },
  {
    "symbol": "Galactia",
    "date": "2018-07-30T05:58:20.952",
    "price": 54.93988571
  },
  {
    "symbol": "Interstella",
    "date": "2018-07-30T05:58:20.953",
    "price": 56.38532258
  },
  {
    "symbol": "Heliosphere",
    "date": "2018-07-30T05:58:20.956",
    "price": 83.29989362
  },
  {
    "symbol": "Koronis",
    "date": "2018-07-30T05:58:20.956",
    "price": 97.6776
  },
  {
    "symbol": "Deuteronic",
    "date": "2018-07-30T05:58:20.957",
    "price": 2100.3275
  },
  {
    "symbol": "Jupiter",
    "date": "2018-07-30T05:58:20.957",
    "price": 9.274240838
  },
  {
    "symbol": "Eclipse",
    "date": "2018-07-30T05:58:20.970",
    "price": 10078.76
  },
  {
    "symbol": "Jupiter",
    "date": "2018-07-30T05:58:20.970",
    "price": 19.12940217
  },
  {
    "symbol": "Borealis",
    "date": "2018-07-30T05:58:20.971",
    "price": 529.1136364
  },
  {
    "symbol": "Floral",
    "date": "2018-07-30T05:58:20.971",
    "price": 13.74862069
  },
  {
    "symbol": "Deuteronic",
    "date": "2018-07-30T05:58:20.971",
    "price": 206.2290244
  },
  {
    "symbol": "Celestial",
    "date": "2018-07-30T05:58:20.993",
    "price": 1421.39
  },
  {
    "symbol": "Lunatic",
    "date": "2018-07-30T05:58:20.993",
    "price": 615.2933333
  },
  {
    "symbol": "Galactia",
    "date": "2018-07-30T05:58:20.993",
    "price": 9690.81
  },
  {
    "symbol": "Jupiter",
    "date": "2018-07-30T05:58:20.993",
    "price": 3494.76
  },
  {
    "symbol": "Koronis",
    "date": "2018-07-30T05:58:21.013",
    "price": 224.0954545
  },
  {
    "symbol": "Lunatic",
    "date": "2018-07-30T05:58:21.013",
    "price": 363.678
  },
  {
    "symbol": "Jupiter",
    "date": "2018-07-30T05:58:21.465",
    "price": 882.78
  },
  {
    "symbol": "Jupiter",
    "date": "2018-07-30T05:58:21.465",
    "price": 1193.876667
  },
  {
    "symbol": "Borealis",
    "date": "2018-07-30T05:58:21.465",
    "price": 81.25253521
  },
  {
    "symbol": "Interstella",
    "date": "2018-07-30T05:58:21.465",
    "price": 880.895
  },
  {
    "symbol": "Heliosphere",
    "date": "2018-07-30T05:58:21.466",
    "price": 250.2090323
  },
  {
    "symbol": "Floral",
    "date": "2018-07-30T05:58:21.470",
    "price": 1.384300341
  },
  {
    "symbol": "Lunatic",
    "date": "2018-07-30T05:58:21.763",
    "price": 1.821590214
  },
  {
    "symbol": "Interstella",
    "date": "2018-07-30T05:58:21.787",
    "price": 886.6925
  },
  {
    "symbol": "Interstella",
    "date": "2018-07-30T05:58:21.788",
    "price": 29.42647059
  },
  {
    "symbol": "Floral",
    "date": "2018-07-30T05:58:21.788",
    "price": 26.93
  },
  {
    "symbol": "Borealis",
    "date": "2018-07-30T05:58:21.788",
    "price": 16.23369318
  },
  {
    "symbol": "Koronis",
    "date": "2018-07-30T05:58:21.788",
    "price": 1248.31
  },
  {
    "symbol": "Deuteronic",
    "date": "2018-07-30T05:58:21.791",
    "price": 36.90243363
  },
  {
    "symbol": "Galactia",
    "date": "2018-07-30T05:58:21.792",
    "price": 3197.103333
  },
  {
    "symbol": "Astronomica",
    "date": "2018-07-30T05:58:21.792",
    "price": 1701.32
  },
  {
    "symbol": "Celestial",
    "date": "2018-07-30T05:58:21.793",
    "price": 4.474249201
  },
  {
    "symbol": "Jupiter",
    "date": "2018-07-30T05:58:21.844",
    "price": 9.51016
  },
  {
    "symbol": "Floral",
    "date": "2018-07-30T05:58:21.880",
    "price": 1.269627329
  },
  {
    "symbol": "Jupiter",
    "date": "2018-07-30T05:58:21.881",
    "price": 3544.86
  },
  {
    "symbol": "Lunatic",
    "date": "2018-07-30T05:58:21.881",
    "price": 14.93193277
  },
  {
    "symbol": "Borealis",
    "date": "2018-07-30T05:58:21.881",
    "price": 5.819345418
  },
  {
    "symbol": "Borealis",
    "date": "2018-07-30T05:58:21.881",
    "price": 44.71117188
  },
  {
    "symbol": "Lunatic",
    "date": "2018-07-30T05:58:21.881",
    "price": 14.41868852
  },
  {
    "symbol": "Floral",
    "date": "2018-07-30T05:58:21.906",
    "price": 103.3375
  },
  {
    "symbol": "Eclipse",
    "date": "2018-07-30T05:58:21.919",
    "price": 4979.995
  },
  {
    "symbol": "Galactia",
    "date": "2018-07-30T05:58:21.920",
    "price": 111.5944706
  },
  {
    "symbol": "Borealis",
    "date": "2018-07-30T05:58:21.920",
    "price": 176.994375
  },
  {
    "symbol": "Heliosphere",
    "date": "2018-07-30T05:58:21.920",
    "price": 590.8638462
  },
  {
    "symbol": "Lunatic",
    "date": "2018-07-30T05:58:21.920",
    "price": 430.9975
  },
  {
    "symbol": "Astronomica",
    "date": "2018-07-30T05:58:21.921",
    "price": 1718.695
  },
  {
    "symbol": "Floral",
    "date": "2018-07-30T05:58:21.947",
    "price": 0.827707911
  },
  {
    "symbol": "Koronis",
    "date": "2018-07-30T05:58:21.947",
    "price": 2524.7
  },
  {
    "symbol": "Jupiter",
    "date": "2018-07-30T05:58:21.947",
    "price": 48.92763889
  },
  {
    "symbol": "Jupiter",
    "date": "2018-07-30T05:58:21.947",
    "price": 3568.14
  },
  {
    "symbol": "Astronomica",
    "date": "2018-07-30T05:58:21.947",
    "price": 69.39040816
  },
  {
    "symbol": "Celestial",
    "date": "2018-07-30T05:58:21.951",
    "price": 3.116004415
  },
  {
    "symbol": "Floral",
    "date": "2018-07-30T05:58:21.951",
    "price": 3.033308824
  },
  {
    "symbol": "Astronomica",
    "date": "2018-07-30T05:58:21.951",
    "price": 841.9875
  },
  {
    "symbol": "Astronomica",
    "date": "2018-07-30T05:58:21.952",
    "price": 92.67805556
  },
  {
    "symbol": "Eclipse",
    "date": "2018-07-30T05:58:21.954",
    "price": 233.3672093
  },
  {
    "symbol": "Jupiter",
    "date": "2018-07-30T05:58:21.954",
    "price": 515.77
  },
  {
    "symbol": "Koronis",
    "date": "2018-07-30T05:58:21.954",
    "price": 364.7857143
  },
  {
    "symbol": "Lunatic",
    "date": "2018-07-30T05:58:21.955",
    "price": 337.04
  },
  {
    "symbol": "Interstella",
    "date": "2018-07-30T05:58:24.502",
    "price": 40.61954023
  },
  {
    "symbol": "Eclipse",
    "date": "2018-07-30T05:58:24.687",
    "price": 9924.2
  },
  {
    "symbol": "Lunatic",
    "date": "2018-07-30T05:58:24.700",
    "price": 6.980329218
  },
  {
    "symbol": "Borealis",
    "date": "2018-07-30T05:58:24.700",
    "price": 14.39826196
  },
  {
    "symbol": "Astronomica",
    "date": "2018-07-30T05:58:24.717",
    "price": 68.88791667
  },
  {
    "symbol": "Celestial",
    "date": "2018-07-30T05:58:24.717",
    "price": 51.63555556
  },
  {
    "symbol": "Galactia",
    "date": "2018-07-30T05:58:24.717",
    "price": 86.29504505
  },
  {
    "symbol": "Eclipse",
    "date": "2018-07-30T05:58:24.741",
    "price": 10018.55
  },
  {
    "symbol": "Deuteronic",
    "date": "2018-07-30T05:58:24.742",
    "price": 932.3366667
  },
  {
    "symbol": "Eclipse",
    "date": "2018-07-30T05:58:24.742",
    "price": 2022.556
  },
  {
    "symbol": "Galactia",
    "date": "2018-07-30T05:58:24.742",
    "price": 9453.93
  },
  {
    "symbol": "Floral",
    "date": "2018-07-30T05:58:24.762",
    "price": 6.032537313
  },
  {
    "symbol": "Galactia",
    "date": "2018-07-30T05:58:24.772",
    "price": 444.9457143
  },
  {
    "symbol": "Floral",
    "date": "2018-07-30T05:58:24.772",
    "price": 8.38875
  },
  {
    "symbol": "Lunatic",
    "date": "2018-07-30T05:58:24.772",
    "price": 15.99809524
  },
  {
    "symbol": "Lunatic",
    "date": "2018-07-30T05:58:24.772",
    "price": 60.6025
  },
  {
    "symbol": "Floral",
    "date": "2018-07-30T05:58:24.780",
    "price": 393.63
  },
  {
    "symbol": "Astronomica",
    "date": "2018-07-30T05:58:24.797",
    "price": 6.470316206
  },
  {
    "symbol": "Astronomica",
    "date": "2018-07-30T05:58:24.797",
    "price": 825.4475
  },
  {
    "symbol": "Jupiter",
    "date": "2018-07-30T05:58:24.797",
    "price": 243.5113333
  },
  {
    "symbol": "Borealis",
    "date": "2018-07-30T05:58:24.797",
    "price": 1887.746667
  },
  {
    "symbol": "Astronomica",
    "date": "2018-07-30T05:58:24.797",
    "price": 18.79169492
  },
  {
    "symbol": "Celestial",
    "date": "2018-07-30T05:58:24.799",
    "price": 704.02
  },
  {
    "symbol": "Jupiter",
    "date": "2018-07-30T05:58:24.822",
    "price": 739.606
  },
  {
    "symbol": "Jupiter",
    "date": "2018-07-30T05:58:24.822",
    "price": 18.27160976
  },
  {
    "symbol": "Lunatic",
    "date": "2018-07-30T05:58:24.934",
    "price": 5.198795181
  },
  {
    "symbol": "Floral",
    "date": "2018-07-30T05:58:24.935",
    "price": 30.77769231
  },
  {
    "symbol": "Deuteronic",
    "date": "2018-07-30T06:01:53.736",
    "price": 11.61601124
  },
  {
    "symbol": "Celestial",
    "date": "2018-07-30T06:01:54.561",
    "price": 5.257222222
  },
  {
    "symbol": "Celestial",
    "date": "2018-07-30T06:01:54.562",
    "price": 6.110087336
  },
  {
    "symbol": "Heliosphere",
    "date": "2018-07-30T06:01:54.562",
    "price": 65.49896552
  },
  {
    "symbol": "Jupiter",
    "date": "2018-07-30T06:01:54.562",
    "price": 5.233596127
  },
  {
    "symbol": "Galactia",
    "date": "2018-07-30T06:01:54.563",
    "price": 767.36
  },
  {
    "symbol": "Heliosphere",
    "date": "2018-07-30T06:01:54.577",
    "price": 85.16777778
  },
  {
    "symbol": "Interstella",
    "date": "2018-07-30T06:01:54.577",
    "price": 27.41323077
  },
  {
    "symbol": "Astronomica",
    "date": "2018-07-30T06:01:54.577",
    "price": 366.0977778
  },
  {
    "symbol": "Floral",
    "date": "2018-07-30T06:01:54.577",
    "price": 201.995
  },
  {
    "symbol": "Heliosphere",
    "date": "2018-07-30T06:01:54.577",
    "price": 26.36809028
  },
  {
    "symbol": "Borealis",
    "date": "2018-07-30T06:01:54.579",
    "price": 51.98954545
  },
  {
    "symbol": "Astronomica",
    "date": "2018-07-30T06:01:54.579",
    "price": 20.49761006
  },
  {
    "symbol": "Deuteronic",
    "date": "2018-07-30T06:01:54.579",
    "price": 131.9566667
  },
  {
    "symbol": "Lunatic",
    "date": "2018-07-30T06:01:54.579",
    "price": 125.115
  },
  {
    "symbol": "Jupiter",
    "date": "2018-07-30T06:01:54.579",
    "price": 3760.62
  },
  {
    "symbol": "Celestial",
    "date": "2018-07-30T06:01:54.652",
    "price": 6.955979899
  },
  {
    "symbol": "Heliosphere",
    "date": "2018-07-30T06:01:54.652",
    "price": 178.8938095
  },
  {
    "symbol": "Deuteronic",
    "date": "2018-07-30T06:01:54.656",
    "price": 122.358806
  },
  {
    "symbol": "Jupiter",
    "date": "2018-07-30T06:01:55.467",
    "price": 18.12101942
  },
  {
    "symbol": "Lunatic",
    "date": "2018-07-30T06:01:55.468",
    "price": 433.4125
  },
  {
    "symbol": "Deuteronic",
    "date": "2018-07-30T06:01:55.468",
    "price": 9.296264368
  },
  {
    "symbol": "Galactia",
    "date": "2018-07-30T06:01:55.468",
    "price": 202.3364444
  },
  {
    "symbol": "Celestial",
    "date": "2018-07-30T06:01:55.468",
    "price": 199.5071429
  },
  {
    "symbol": "Floral",
    "date": "2018-07-30T06:01:55.468",
    "price": 8.0248
  },
  {
    "symbol": "Jupiter",
    "date": "2018-07-30T06:01:55.470",
    "price": 246.6846667
  },
  {
    "symbol": "Galactia",
    "date": "2018-07-30T06:01:55.470",
    "price": 35.34223529
  },
  {
    "symbol": "Koronis",
    "date": "2018-07-30T06:01:55.470",
    "price": 7.70853211
  },
  {
    "symbol": "Jupiter",
    "date": "2018-07-30T06:01:55.492",
    "price": 1869.255
  },
  {
    "symbol": "Celestial",
    "date": "2018-07-30T06:01:55.492",
    "price": 3.233240093
  },
  {
    "symbol": "Koronis",
    "date": "2018-07-30T06:01:55.492",
    "price": 2492.62
  },
  {
    "symbol": "Jupiter",
    "date": "2018-07-30T06:01:55.493",
    "price": 1260.213333
  },
  {
    "symbol": "Eclipse",
    "date": "2018-07-30T06:01:55.495",
    "price": 370.8144444
  },
  {
    "symbol": "Heliosphere",
    "date": "2018-07-30T06:01:55.589",
    "price": 1488.23
  },
  {
    "symbol": "Galactia",
    "date": "2018-07-30T06:01:55.589",
    "price": 64.58724638
  },
  {
    "symbol": "Lunatic",
    "date": "2018-07-30T06:01:55.595",
    "price": 14.92384615
  },
  {
    "symbol": "Heliosphere",
    "date": "2018-07-30T06:01:55.596",
    "price": 45.01646707
  },
  {
    "symbol": "Galactia",
    "date": "2018-07-30T06:01:55.596",
    "price": 1797.494
  },
  {
    "symbol": "Lunatic",
    "date": "2018-07-30T06:01:55.596",
    "price": 2.064599761
  },
  {
    "symbol": "Eclipse",
    "date": "2018-07-30T06:01:55.596",
    "price": 430.536087
  },
  {
    "symbol": "Koronis",
    "date": "2018-07-30T06:01:55.598",
    "price": 6.731470588
  },
  {
    "symbol": "Koronis",
    "date": "2018-07-30T06:01:55.598",
    "price": 621.865
  },
  {
    "symbol": "Koronis",
    "date": "2018-07-30T06:01:55.598",
    "price": 2513.9
  },
  {
    "symbol": "Lunatic",
    "date": "2018-07-30T06:01:55.598",
    "price": 17.51680412
  },
  {
    "symbol": "Jupiter",
    "date": "2018-07-30T06:01:55.598",
    "price": 55.26926471
  },
  {
    "symbol": "Koronis",
    "date": "2018-07-30T06:02:02.317",
    "price": 846.5733333
  },
  {
    "symbol": "Eclipse",
    "date": "2018-07-30T06:02:02.318",
    "price": 65.78703947
  },
  {
    "symbol": "Interstella",
    "date": "2018-07-30T06:02:02.318",
    "price": 68.93156863
  },
  {
    "symbol": "Celestial",
    "date": "2018-07-30T06:02:02.318",
    "price": 1400.93
  },
  {
    "symbol": "Deuteronic",
    "date": "2018-07-30T06:02:02.318",
    "price": 3987.325
  },
  {
    "symbol": "Galactia",
    "date": "2018-07-30T06:02:02.318",
    "price": 65.30007194
  },
  {
    "symbol": "Astronomica",
    "date": "2018-07-30T06:02:02.331",
    "price": 10.72883721
  },
  {
    "symbol": "Astronomica",
    "date": "2018-07-30T06:02:02.332",
    "price": 543.635
  },
  {
    "symbol": "Koronis",
    "date": "2018-07-30T06:02:02.335",
    "price": 284.8455556
  },
  {
    "symbol": "Deuteronic",
    "date": "2018-07-30T06:02:02.335",
    "price": 99.03679012
  },
  {
    "symbol": "Galactia",
    "date": "2018-07-30T06:02:02.335",
    "price": 4482.075
  },
  {
    "symbol": "Floral",
    "date": "2018-07-30T06:02:02.335",
    "price": 30.63538462
  },
  {
    "symbol": "Heliosphere",
    "date": "2018-07-30T06:02:02.335",
    "price": 31.81119658
  },
  {
    "symbol": "Koronis",
    "date": "2018-07-30T06:02:02.335",
    "price": 2588.34
  },
  {
    "symbol": "Borealis",
    "date": "2018-07-30T06:02:02.335",
    "price": 97.82711864
  },
  {
    "symbol": "Eclipse",
    "date": "2018-07-30T06:02:02.337",
    "price": 107.3565957
  },
  {
    "symbol": "Astronomica",
    "date": "2018-07-30T06:02:02.463",
    "price": 3.443977035
  },
  {
    "symbol": "Deuteronic",
    "date": "2018-07-30T06:02:02.466",
    "price": 3953.36
  },
  {
    "symbol": "Borealis",
    "date": "2018-07-30T06:02:02.761",
    "price": 10.21858929
  },
  {
    "symbol": "Jupiter",
    "date": "2018-07-30T06:02:02.761",
    "price": 86.36772727
  },
  {
    "symbol": "Jupiter",
    "date": "2018-07-30T06:02:02.761",
    "price": 164.153913
  },
  {
    "symbol": "Celestial",
    "date": "2018-07-30T06:02:02.761",
    "price": 74.15421053
  },
  {
    "symbol": "Heliosphere",
    "date": "2018-07-30T06:02:02.761",
    "price": 49.3814094
  },
  {
    "symbol": "Astronomica",
    "date": "2018-07-30T06:02:02.764",
    "price": 653.382
  },
  {
    "symbol": "Interstella",
    "date": "2018-07-30T06:02:02.764",
    "price": 165.352381
  },
  {
    "symbol": "Celestial",
    "date": "2018-07-30T06:02:02.764",
    "price": 475.1533333
  },
  {
    "symbol": "Jupiter",
    "date": "2018-07-30T06:02:02.764",
    "price": 182.0257143
  },
  {
    "symbol": "Galactia",
    "date": "2018-07-30T06:02:02.764",
    "price": 135.1607463
  },
  {
    "symbol": "Borealis",
    "date": "2018-07-30T06:02:02.764",
    "price": 202.3964286
  },
  {
    "symbol": "Eclipse",
    "date": "2018-07-30T06:02:02.764",
    "price": 10183.83
  },
  {
    "symbol": "Lunatic",
    "date": "2018-07-30T06:02:02.764",
    "price": 1703
  },
  {
    "symbol": "Lunatic",
    "date": "2018-07-30T06:02:02.764",
    "price": 336.834
  },
  {
    "symbol": "Floral",
    "date": "2018-07-30T06:02:02.841",
    "price": 58.01857143
  },
  {
    "symbol": "Borealis",
    "date": "2018-07-30T06:02:02.842",
    "price": 48.05084034
  },
  {
    "symbol": "Eclipse",
    "date": "2018-07-30T06:02:02.845",
    "price": 10082.86
  },
  {
    "symbol": "Galactia",
    "date": "2018-07-30T06:02:02.845",
    "price": 57.117125
  },
  {
    "symbol": "Floral",
    "date": "2018-07-30T06:02:02.845",
    "price": 5.3875
  },
  {
    "symbol": "Heliosphere",
    "date": "2018-07-30T06:02:02.845",
    "price": 110.1139394
  },
  {
    "symbol": "Floral",
    "date": "2018-07-30T06:02:02.845",
    "price": 0.554726302
  },
  {
    "symbol": "Lunatic",
    "date": "2018-07-30T06:02:06.370",
    "price": 118.74
  },
  {
    "symbol": "Borealis",
    "date": "2018-07-30T06:02:06.377",
    "price": 257.3086364
  },
  {
    "symbol": "Eclipse",
    "date": "2018-07-30T06:02:06.387",
    "price": 423.7254167
  },
  {
    "symbol": "Eclipse",
    "date": "2018-07-30T06:02:06.388",
    "price": 108.0694624
  },
  {
    "symbol": "Galactia",
    "date": "2018-07-30T06:02:06.430",
    "price": 167.6472727
  },
  {
    "symbol": "Koronis",
    "date": "2018-07-30T06:02:06.430",
    "price": 182.5885714
  },
  {
    "symbol": "Astronomica",
    "date": "2018-07-30T06:02:06.430",
    "price": 3297.82
  },
  {
    "symbol": "Borealis",
    "date": "2018-07-30T06:02:06.732",
    "price": 184.4922581
  },
  {
    "symbol": "Jupiter",
    "date": "2018-07-30T06:02:06.733",
    "price": 949.09
  },
  {
    "symbol": "Floral",
    "date": "2018-07-30T06:02:06.742",
    "price": 7.430178571
  },
  {
    "symbol": "Interstella",
    "date": "2018-07-30T06:02:06.744",
    "price": 19.32701657
  },
  {
    "symbol": "Deuteronic",
    "date": "2018-07-30T06:02:06.745",
    "price": 1326.64
  },
  {
    "symbol": "Astronomica",
    "date": "2018-07-30T06:02:06.745",
    "price": 191.8535294
  },
  {
    "symbol": "Galactia",
    "date": "2018-07-30T06:02:06.745",
    "price": 42.63018692
  },
  {
    "symbol": "Jupiter",
    "date": "2018-07-30T06:02:06.761",
    "price": 163.6626087
  },
  {
    "symbol": "Koronis",
    "date": "2018-07-30T06:02:06.976",
    "price": 40.99126984
  },
  {
    "symbol": "Koronis",
    "date": "2018-07-30T06:02:06.979",
    "price": 4.285067114
  },
  {
    "symbol": "Floral",
    "date": "2018-07-30T06:02:06.979",
    "price": 0.90595186
  },
  {
    "symbol": "Lunatic",
    "date": "2018-07-30T06:02:06.979",
    "price": 415.745
  },
  {
    "symbol": "Floral",
    "date": "2018-07-30T06:02:06.979",
    "price": 15.85653846
  },
  {
    "symbol": "Astronomica",
    "date": "2018-07-30T06:02:07.048",
    "price": 143.0734783
  },
  {
    "symbol": "Interstella",
    "date": "2018-07-30T06:02:07.048",
    "price": 135.5115385
  },
  {
    "symbol": "Astronomica",
    "date": "2018-07-30T06:02:07.048",
    "price": 3320.14
  },
  {
    "symbol": "Galactia",
    "date": "2018-07-30T06:02:07.048",
    "price": 200.2542222
  },
  {
    "symbol": "Borealis",
    "date": "2018-07-30T06:02:07.048",
    "price": 18.37983766
  },
  {
    "symbol": "Astronomica",
    "date": "2018-07-30T06:02:07.048",
    "price": 28.37646552
  },
  {
    "symbol": "Interstella",
    "date": "2018-07-30T06:02:51.420",
    "price": 580.42
  },
  {
    "symbol": "Borealis",
    "date": "2018-07-30T06:02:51.420",
    "price": 150.8102632
  },
  {
    "symbol": "Jupiter",
    "date": "2018-07-30T06:02:51.423",
    "price": 1903.74
  },
  {
    "symbol": "Galactia",
    "date": "2018-07-30T06:02:51.423",
    "price": 72.6924
  },
  {
    "symbol": "Galactia",
    "date": "2018-07-30T06:02:51.423",
    "price": 289.7793548
  },
  {
    "symbol": "Heliosphere",
    "date": "2018-07-30T06:02:51.423",
    "price": 17.45503563
  },
  {
    "symbol": "Astronomica",
    "date": "2018-07-30T06:02:51.423",
    "price": 12.72819923
  },
  {
    "symbol": "Floral",
    "date": "2018-07-30T06:02:51.607",
    "price": 420.11
  },
  {
    "symbol": "Galactia",
    "date": "2018-07-30T06:02:51.607",
    "price": 13.41729607
  },
  {
    "symbol": "Eclipse",
    "date": "2018-07-30T06:02:51.607",
    "price": 778.8761538
  },
  {
    "symbol": "Lunatic",
    "date": "2018-07-30T06:02:51.609",
    "price": 1639.21
  },
  {
    "symbol": "Koronis",
    "date": "2018-07-30T06:02:51.614",
    "price": 13.96530387
  },
  {
    "symbol": "Floral",
    "date": "2018-07-30T06:02:51.652",
    "price": 2.970352113
  },
  {
    "symbol": "Borealis",
    "date": "2018-07-30T06:02:51.652",
    "price": 2830.12
  },
  {
    "symbol": "Koronis",
    "date": "2018-07-30T06:02:51.652",
    "price": 9.348208955
  },
  {
    "symbol": "Heliosphere",
    "date": "2018-07-30T06:02:51.652",
    "price": 60.41284553
  },
  {
    "symbol": "Heliosphere",
    "date": "2018-07-30T06:02:51.652",
    "price": 1879.18
  },
  {
    "symbol": "Eclipse",
    "date": "2018-07-30T06:02:51.653",
    "price": 10201.96
  },
  {
    "symbol": "Astronomica",
    "date": "2018-07-30T06:02:51.653",
    "price": 65.8572549
  },
  {
    "symbol": "Borealis",
    "date": "2018-07-30T06:02:51.653",
    "price": 1121.126
  },
  {
    "symbol": "Interstella",
    "date": "2018-07-30T06:02:51.653",
    "price": 56.46016393
  },
  {
    "symbol": "Eclipse",
    "date": "2018-07-30T06:02:51.656",
    "price": 55.38956989
  },
  {
    "symbol": "Deuteronic",
    "date": "2018-07-30T06:02:51.988",
    "price": 8.588165236
  },
  {
    "symbol": "Borealis",
    "date": "2018-07-30T06:02:51.995",
    "price": 69.442125
  },
  {
    "symbol": "Galactia",
    "date": "2018-07-30T06:02:51.997",
    "price": 1787.798
  },
  {
    "symbol": "Celestial",
    "date": "2018-07-30T06:02:51.997",
    "price": 4.720688525
  },
  {
    "symbol": "Borealis",
    "date": "2018-07-30T06:02:51.997",
    "price": 26.11032558
  },
  {
    "symbol": "Galactia",
    "date": "2018-07-30T06:02:51.997",
    "price": 215.3329268
  },
  {
    "symbol": "Interstella",
    "date": "2018-07-30T06:02:51.997",
    "price": 41.87686747
  },
  {
    "symbol": "Koronis",
    "date": "2018-07-30T06:02:51.999",
    "price": 1239.54
  },
  {
    "symbol": "Borealis",
    "date": "2018-07-30T06:02:52.068",
    "price": 5683.49
  },
  {
    "symbol": "Celestial",
    "date": "2018-07-30T06:02:52.070",
    "price": 711.44
  },
  {
    "symbol": "Deuteronic",
    "date": "2018-07-30T06:02:52.070",
    "price": 22.69310345
  },
  {
    "symbol": "Lunatic",
    "date": "2018-07-30T06:02:52.070",
    "price": 1.811315789
  },
  {
    "symbol": "Heliosphere",
    "date": "2018-07-30T06:02:52.070",
    "price": 47.4831875
  },
  {
    "symbol": "Deuteronic",
    "date": "2018-07-30T06:02:52.070",
    "price": 99.81128205
  },
  {
    "symbol": "Celestial",
    "date": "2018-07-30T06:02:52.070",
    "price": 350.3325
  },
  {
    "symbol": "Deuteronic",
    "date": "2018-07-30T06:02:52.219",
    "price": 116.3174242
  },
  {
    "symbol": "Celestial",
    "date": "2018-07-30T06:02:52.247",
    "price": 6.473084112
  },
  {
    "symbol": "Koronis",
    "date": "2018-07-30T06:02:52.247",
    "price": 613.0475
  },
  {
    "symbol": "Heliosphere",
    "date": "2018-07-30T06:02:52.247",
    "price": 17.55453089
  },
  {
    "symbol": "Koronis",
    "date": "2018-07-30T06:02:52.248",
    "price": 48.5806
  },
  {
    "symbol": "Eclipse",
    "date": "2018-07-30T06:02:52.249",
    "price": 5196.71
  },
  {
    "symbol": "Heliosphere",
    "date": "2018-07-30T06:02:52.254",
    "price": 584.1738462
  },
  {
    "symbol": "Jupiter",
    "date": "2018-07-30T06:02:52.254",
    "price": 4.613743902
  },
  {
    "symbol": "Galactia",
    "date": "2018-07-30T06:02:52.254",
    "price": 8.805695565
  },
  {
    "symbol": "Jupiter",
    "date": "2018-07-30T06:02:52.254",
    "price": 1250.196667
  },
  {
    "symbol": "Galactia",
    "date": "2018-07-30T06:02:52.254",
    "price": 518.9176471
  },
  {
    "symbol": "Galactia",
    "date": "2018-07-30T06:02:52.730",
    "price": 436.421
  },
  {
    "symbol": "Eclipse",
    "date": "2018-07-30T06:02:52.777",
    "price": 317.7878788
  },
  {
    "symbol": "Borealis",
    "date": "2018-07-30T06:02:52.778",
    "price": 382.8653333
  },
  {
    "symbol": "Galactia",
    "date": "2018-07-30T06:02:52.778",
    "price": 4315.29
  },
  {
    "symbol": "Celestial",
    "date": "2018-07-30T06:02:52.778",
    "price": 349.1575
  },
  {
    "symbol": "Koronis",
    "date": "2018-07-30T06:02:52.778",
    "price": 1231.97
  },
  {
    "symbol": "Interstella",
    "date": "2018-07-30T06:02:52.778",
    "price": 67.46392157
  },
  {
    "symbol": "Interstella",
    "date": "2018-07-30T06:02:52.783",
    "price": 386.0088889
  },
  {
    "symbol": "Deuteronic",
    "date": "2018-07-30T06:02:52.783",
    "price": 7567.14
  },
  {
    "symbol": "Galactia",
    "date": "2018-07-30T06:02:52.783",
    "price": 2844.353333
  },
  {
    "symbol": "Astronomica",
    "date": "2018-07-30T06:02:52.783",
    "price": 38.56113636
  },
  {
    "symbol": "Eclipse",
    "date": "2018-07-30T06:02:52.783",
    "price": 576.805
  },
  {
    "symbol": "Astronomica",
    "date": "2018-07-30T06:02:52.785",
    "price": 673.262
  },
  {
    "symbol": "Koronis",
    "date": "2018-07-30T06:02:52.785",
    "price": 9.842580645
  },
  {
    "symbol": "Borealis",
    "date": "2018-07-30T06:02:52.785",
    "price": 517.5381818
  },
  {
    "symbol": "Astronomica",
    "date": "2018-07-30T06:02:52.791",
    "price": 77.40545455
  },
  {
    "symbol": "Eclipse",
    "date": "2018-07-30T06:02:52.791",
    "price": 10248.37
  },
  {
    "symbol": "Galactia",
    "date": "2018-07-30T06:02:52.791",
    "price": 40.38645933
  },
  {
    "symbol": "Floral",
    "date": "2018-07-30T06:02:52.802",
    "price": 6.40761194
  },
  {
    "symbol": "Floral",
    "date": "2018-07-30T06:02:52.802",
    "price": 24.83235294
  },
  {
    "symbol": "Deuteronic",
    "date": "2018-07-30T06:02:52.806",
    "price": 34.44972851
  },
  {
    "symbol": "Eclipse",
    "date": "2018-07-30T06:02:52.806",
    "price": 5165.175
  },
  {
    "symbol": "Lunatic",
    "date": "2018-07-30T06:02:52.806",
    "price": 18.34835165
  },
  {
    "symbol": "Heliosphere",
    "date": "2018-07-30T06:02:52.807",
    "price": 7511.43
  },
  {
    "symbol": "Eclipse",
    "date": "2018-07-30T06:02:52.807",
    "price": 1488.855714
  },
  {
    "symbol": "Celestial",
    "date": "2018-07-30T06:02:52.891",
    "price": 12.43855856
  },
  {
    "symbol": "Koronis",
    "date": "2018-07-30T06:02:52.891",
    "price": 6.182005013
  },
  {
    "symbol": "Floral",
    "date": "2018-07-30T06:02:52.891",
    "price": 85.632
  },
  {
    "symbol": "Lunatic",
    "date": "2018-07-30T06:02:52.973",
    "price": 44.97648649
  },
  {
    "symbol": "Celestial",
    "date": "2018-07-30T06:02:52.975",
    "price": 3.669758713
  },
  {
    "symbol": "Lunatic",
    "date": "2018-07-30T06:02:53.069",
    "price": 209.24125
  },
  {
    "symbol": "Lunatic",
    "date": "2018-07-30T06:02:53.069",
    "price": 168.99
  },
  {
    "symbol": "Deuteronic",
    "date": "2018-07-30T06:02:53.069",
    "price": 43.70988571
  },
  {
    "symbol": "Lunatic",
    "date": "2018-07-30T06:02:53.073",
    "price": 4.43531746
  },
  {
    "symbol": "Interstella",
    "date": "2018-07-30T06:02:53.073",
    "price": 31.89136364
  },
  {
    "symbol": "Borealis",
    "date": "2018-07-30T06:02:53.073",
    "price": 1916.04
  },
  {
    "symbol": "Eclipse",
    "date": "2018-07-30T06:02:53.073",
    "price": 1718.59
  },
  {
    "symbol": "Eclipse",
    "date": "2018-07-30T06:02:53.117",
    "price": 5204.87
  },
  {
    "symbol": "Jupiter",
    "date": "2018-07-30T06:02:53.117",
    "price": 11.28041543
  },
  {
    "symbol": "Floral",
    "date": "2018-07-30T06:02:53.117",
    "price": 52.75875
  },
  {
    "symbol": "Koronis",
    "date": "2018-07-30T06:02:53.117",
    "price": 222.1918182
  },
  {
    "symbol": "Koronis",
    "date": "2018-07-30T06:02:53.117",
    "price": 2422.74
  },
  {
    "symbol": "Borealis",
    "date": "2018-07-30T06:02:53.117",
    "price": 5812.87
  },
  {
    "symbol": "Eclipse",
    "date": "2018-07-30T06:02:53.118",
    "price": 643.804375
  },
  {
    "symbol": "Floral",
    "date": "2018-07-30T06:02:53.118",
    "price": 3.697672414
  },
  {
    "symbol": "Deuteronic",
    "date": "2018-07-30T06:02:53.118",
    "price": 17.58622426
  },
  {
    "symbol": "Floral",
    "date": "2018-07-30T06:02:53.118",
    "price": 216.34
  },
  {
    "symbol": "Floral",
    "date": "2018-07-30T06:02:53.118",
    "price": 61.23
  },
  {
    "symbol": "Borealis",
    "date": "2018-07-30T06:02:53.118",
    "price": 18.12833333
  },
  {
    "symbol": "Celestial",
    "date": "2018-07-30T06:03:02.966",
    "price": 30.594
  },
  {
    "symbol": "Koronis",
    "date": "2018-07-30T06:03:02.966",
    "price": 815.4033333
  },
  {
    "symbol": "Heliosphere",
    "date": "2018-07-30T06:03:02.966",
    "price": 15.49277551
  },
  {
    "symbol": "Galactia",
    "date": "2018-07-30T06:03:03.250",
    "price": 8.940545645
  },
  {
    "symbol": "Galactia",
    "date": "2018-07-30T06:03:03.252",
    "price": 780.9063636
  },
  {
    "symbol": "Borealis",
    "date": "2018-07-30T06:03:03.253",
    "price": 2909.085
  },
  {
    "symbol": "Galactia",
    "date": "2018-07-30T06:03:03.253",
    "price": 47.74247191
  },
  {
    "symbol": "Koronis",
    "date": "2018-07-30T06:03:03.253",
    "price": 617.3425
  },
  {
    "symbol": "Interstella",
    "date": "2018-07-30T06:03:03.254",
    "price": 288.1691667
  },
  {
    "symbol": "Lunatic",
    "date": "2018-07-30T06:03:03.254",
    "price": 565.29
  },
  {
    "symbol": "Jupiter",
    "date": "2018-07-30T06:03:03.254",
    "price": 1283.206667
  },
  {
    "symbol": "Astronomica",
    "date": "2018-07-30T06:03:03.254",
    "price": 228.7353333
  },
  {
    "symbol": "Borealis",
    "date": "2018-07-30T06:03:03.254",
    "price": 91.45873016
  },
  {
    "symbol": "Lunatic",
    "date": "2018-07-30T06:03:03.254",
    "price": 41.78365854
  },
  {
    "symbol": "Koronis",
    "date": "2018-07-30T06:03:03.254",
    "price": 38.17390625
  },
  {
    "symbol": "Floral",
    "date": "2018-07-30T06:03:03.254",
    "price": 17.50166667
  },
  {
    "symbol": "Eclipse",
    "date": "2018-07-30T06:03:03.254",
    "price": 11.60766741
  },
  {
    "symbol": "Interstella",
    "date": "2018-07-30T06:03:03.254",
    "price": 268.3523077
  },
  {
    "symbol": "Koronis",
    "date": "2018-07-30T06:03:03.254",
    "price": 822.89
  },
  {
    "symbol": "Jupiter",
    "date": "2018-07-30T06:03:03.255",
    "price": 141.4614815
  },
  {
    "symbol": "Eclipse",
    "date": "2018-07-30T06:03:03.255",
    "price": 2057.472
  },
  {
    "symbol": "Floral",
    "date": "2018-07-30T06:03:03.257",
    "price": 16.53961538
  },
  {
    "symbol": "Jupiter",
    "date": "2018-07-30T06:03:03.257",
    "price": 5.478992908
  },
  {
    "symbol": "Lunatic",
    "date": "2018-07-30T06:03:03.267",
    "price": 561.4966667
  },
  {
    "symbol": "Heliosphere",
    "date": "2018-07-30T06:03:03.267",
    "price": 8.36254902
  },
  {
    "symbol": "Interstella",
    "date": "2018-07-30T06:03:03.267",
    "price": 877.5575
  },
  {
    "symbol": "Lunatic",
    "date": "2018-07-30T06:03:03.267",
    "price": 87.43631579
  },
  {
    "symbol": "Celestial",
    "date": "2018-07-30T06:03:03.267",
    "price": 5.558674699
  },
  {
    "symbol": "Interstella",
    "date": "2018-07-30T06:03:03.269",
    "price": 144.4770833
  },
  {
    "symbol": "Deuteronic",
    "date": "2018-07-30T06:03:03.269",
    "price": 113.7458824
  },
  {
    "symbol": "Koronis",
    "date": "2018-07-30T06:03:03.888",
    "price": 48.90980392
  },
  {
    "symbol": "Borealis",
    "date": "2018-07-30T06:03:03.888",
    "price": 157.2702703
  },
  {
    "symbol": "Deuteronic",
    "date": "2018-07-30T06:03:03.888",
    "price": 117.9065152
  },
  {
    "symbol": "Galactia",
    "date": "2018-07-30T06:03:03.888",
    "price": 8.457260826
  },
  {
    "symbol": "Floral",
    "date": "2018-07-30T06:03:03.902",
    "price": 12.96212121
  },
  {
    "symbol": "Deuteronic",
    "date": "2018-07-30T06:03:04.011",
    "price": 522.1293333
  },
  {
    "symbol": "Celestial",
    "date": "2018-07-30T06:03:04.011",
    "price": 1400.11
  },
  {
    "symbol": "Jupiter",
    "date": "2018-07-30T06:03:04.012",
    "price": 6.691521368
  },
  {
    "symbol": "Astronomica",
    "date": "2018-07-30T06:03:04.012",
    "price": 6.821546185
  },
  {
    "symbol": "Heliosphere",
    "date": "2018-07-30T06:03:04.012",
    "price": 158.1520408
  },
  {
    "symbol": "Lunatic",
    "date": "2018-07-30T06:03:04.012",
    "price": 8.898235294
  },
  {
    "symbol": "Borealis",
    "date": "2018-07-30T06:03:04.012",
    "price": 12.29165272
  },
  {
    "symbol": "Floral",
    "date": "2018-07-30T06:03:04.012",
    "price": 38.43636364
  },
  {
    "symbol": "Heliosphere",
    "date": "2018-07-30T06:03:04.012",
    "price": 3908.975
  },
  {
    "symbol": "Galactia",
    "date": "2018-07-30T06:03:04.033",
    "price": 9.499919817
  },
  {
    "symbol": "Deuteronic",
    "date": "2018-07-30T06:03:04.033",
    "price": 3863.765
  },
  {
    "symbol": "Deuteronic",
    "date": "2018-07-30T06:03:05.037",
    "price": 14.34791513
  },
  {
    "symbol": "Deuteronic",
    "date": "2018-07-30T06:03:05.037",
    "price": 178.2965116
  },
  {
    "symbol": "Jupiter",
    "date": "2018-07-30T06:03:05.038",
    "price": 777.224
  },
  {
    "symbol": "Floral",
    "date": "2018-07-30T06:03:05.038",
    "price": 105.4075
  },
  {
    "symbol": "Celestial",
    "date": "2018-07-30T06:03:05.038",
    "price": 16.53107143
  },
  {
    "symbol": "Galactia",
    "date": "2018-07-30T06:03:05.095",
    "price": 913.0966667
  },
  {
    "symbol": "Interstella",
    "date": "2018-07-30T06:03:05.137",
    "price": 6.535381679
  },
  {
    "symbol": "Jupiter",
    "date": "2018-07-30T06:03:05.137",
    "price": 5.858115502
  },
  {
    "symbol": "Eclipse",
    "date": "2018-07-30T06:03:05.137",
    "price": 220.6751064
  },
  {
    "symbol": "Celestial",
    "date": "2018-07-30T06:03:05.137",
    "price": 66.83095238
  },
  {
    "symbol": "Deuteronic",
    "date": "2018-07-30T06:03:05.157",
    "price": 56.83924812
  },
  {
    "symbol": "Koronis",
    "date": "2018-07-30T06:03:05.157",
    "price": 47.51615385
  },
  {
    "symbol": "Celestial",
    "date": "2018-07-30T06:03:05.157",
    "price": 15.02606383
  },
  {
    "symbol": "Eclipse",
    "date": "2018-07-30T06:03:05.157",
    "price": 310.6745455
  },
  {
    "symbol": "Koronis",
    "date": "2018-07-30T06:03:05.157",
    "price": 14.13618497
  },
  {
    "symbol": "Jupiter",
    "date": "2018-07-30T06:03:05.157",
    "price": 225.3517647
  },
  {
    "symbol": "Lunatic",
    "date": "2018-07-30T06:03:05.168",
    "price": 4.386973684
  },
  {
    "symbol": "Deuteronic",
    "date": "2018-07-30T06:03:05.168",
    "price": 1268.645
  },
  {
    "symbol": "Interstella",
    "date": "2018-07-30T06:03:05.169",
    "price": 575.1383333
  },
  {
    "symbol": "Borealis",
    "date": "2018-07-30T06:03:05.179",
    "price": 423.8142857
  },
  {
    "symbol": "Deuteronic",
    "date": "2018-07-30T06:03:05.179",
    "price": 3753.55
  },
  {
    "symbol": "Floral",
    "date": "2018-07-30T06:03:05.179",
    "price": 71.48333333
  },
  {
    "symbol": "Lunatic",
    "date": "2018-07-30T06:03:05.180",
    "price": 4.523719677
  },
  {
    "symbol": "Koronis",
    "date": "2018-07-30T06:03:05.180",
    "price": 2.470296524
  },
  {
    "symbol": "Interstella",
    "date": "2018-07-30T06:03:05.183",
    "price": 19.90485714
  },
  {
    "symbol": "Jupiter",
    "date": "2018-07-30T06:03:05.199",
    "price": 108.7111429
  },
  {
    "symbol": "Jupiter",
    "date": "2018-07-30T06:03:05.199",
    "price": 296.4530769
  },
  {
    "symbol": "Interstella",
    "date": "2018-07-30T06:03:05.199",
    "price": 6.868078431
  },
  {
    "symbol": "Lunatic",
    "date": "2018-07-30T06:03:05.208",
    "price": 46.86805556
  },
  {
    "symbol": "Astronomica",
    "date": "2018-07-30T06:03:05.208",
    "price": 3364.22
  },
  {
    "symbol": "Floral",
    "date": "2018-07-30T06:03:05.208",
    "price": 143.19
  },
  {
    "symbol": "Jupiter",
    "date": "2018-07-30T06:03:06.911",
    "price": 477.75625
  },
  {
    "symbol": "Jupiter",
    "date": "2018-07-30T06:03:06.915",
    "price": 1937.75
  },
  {
    "symbol": "Lunatic",
    "date": "2018-07-30T06:03:06.915",
    "price": 2.533598201
  },
  {
    "symbol": "Floral",
    "date": "2018-07-30T06:03:08.260",
    "price": 0.580844687
  },
  {
    "symbol": "Astronomica",
    "date": "2018-07-30T06:03:08.260",
    "price": 42.19025316
  },
  {
    "symbol": "Interstella",
    "date": "2018-07-30T06:03:08.261",
    "price": 207.8564706
  },
  {
    "symbol": "Lunatic",
    "date": "2018-07-30T06:03:08.261",
    "price": 856.745
  },
  {
    "symbol": "Astronomica",
    "date": "2018-07-30T06:03:08.261",
    "price": 23.71417266
  },
  {
    "symbol": "Koronis",
    "date": "2018-07-30T06:03:08.864",
    "price": 597.0925
  },
  {
    "symbol": "Jupiter",
    "date": "2018-07-30T06:03:08.864",
    "price": 101.3102632
  },
  {
    "symbol": "Heliosphere",
    "date": "2018-07-30T06:03:08.864",
    "price": 2630.023333
  },
  {
    "symbol": "Celestial",
    "date": "2018-07-30T06:03:08.883",
    "price": 63.45272727
  },
  {
    "symbol": "Galactia",
    "date": "2018-07-30T06:03:08.893",
    "price": 4062.305
  },
  {
    "symbol": "Astronomica",
    "date": "2018-07-30T06:03:08.894",
    "price": 3329.52
  },
  {
    "symbol": "Koronis",
    "date": "2018-07-30T06:03:15.423",
    "price": 185.5938462
  },
  {
    "symbol": "Eclipse",
    "date": "2018-07-30T06:03:15.424",
    "price": 156.1864615
  },
  {
    "symbol": "Jupiter",
    "date": "2018-07-30T06:03:15.578",
    "price": 5.186888587
  },
  {
    "symbol": "Interstella",
    "date": "2018-07-30T06:03:15.578",
    "price": 1165.863333
  },
  {
    "symbol": "Borealis",
    "date": "2018-07-30T06:03:15.578",
    "price": 299.584
  },
  {
    "symbol": "Lunatic",
    "date": "2018-07-30T06:03:15.578",
    "price": 4.454153439
  },
  {
    "symbol": "Eclipse",
    "date": "2018-07-30T06:03:15.578",
    "price": 99.56242718
  },
  {
    "symbol": "Borealis",
    "date": "2018-07-30T06:03:15.579",
    "price": 174.4911765
  },
  {
    "symbol": "Floral",
    "date": "2018-07-30T06:03:15.585",
    "price": 427.23
  },
  {
    "symbol": "Galactia",
    "date": "2018-07-30T06:03:15.586",
    "price": 16.90167355
  },
  {
    "symbol": "Galactia",
    "date": "2018-07-30T06:03:15.586",
    "price": 26.48527331
  },
  {
    "symbol": "Astronomica",
    "date": "2018-07-30T06:03:15.586",
    "price": 71.5973913
  },
  {
    "symbol": "Celestial",
    "date": "2018-07-30T06:03:15.586",
    "price": 3.272904762
  },
  {
    "symbol": "Eclipse",
    "date": "2018-07-30T06:03:15.591",
    "price": 1268.0825
  },
  {
    "symbol": "Galactia",
    "date": "2018-07-30T06:03:15.591",
    "price": 12.67181679
  },
  {
    "symbol": "Celestial",
    "date": "2018-07-30T06:03:15.594",
    "price": 26.58961538
  },
  {
    "symbol": "Floral",
    "date": "2018-07-30T06:03:15.635",
    "price": 426.45
  },
  {
    "symbol": "Lunatic",
    "date": "2018-07-30T06:03:15.635",
    "price": 1669.1
  },
  {
    "symbol": "Celestial",
    "date": "2018-07-30T06:03:15.635",
    "price": 7.96
  },
  {
    "symbol": "Borealis",
    "date": "2018-07-30T06:03:15.635",
    "price": 5981.95
  },
  {
    "symbol": "Astronomica",
    "date": "2018-07-30T06:03:15.635",
    "price": 3330.47
  },
  {
    "symbol": "Heliosphere",
    "date": "2018-07-30T06:03:15.635",
    "price": 227.676
  },
  {
    "symbol": "Interstella",
    "date": "2018-07-30T06:03:15.663",
    "price": 345.967
  },
  {
    "symbol": "Deuteronic",
    "date": "2018-07-30T06:03:15.664",
    "price": 290.3957692
  },
  {
    "symbol": "Deuteronic",
    "date": "2018-07-30T06:03:15.679",
    "price": 22.28047904
  },
  {
    "symbol": "Heliosphere",
    "date": "2018-07-30T06:03:16.251",
    "price": 8046.91
  },
  {
    "symbol": "Borealis",
    "date": "2018-07-30T06:03:16.251",
    "price": 754.39125
  },
  {
    "symbol": "Borealis",
    "date": "2018-07-30T06:03:16.251",
    "price": 6102.35
  },
  {
    "symbol": "Celestial",
    "date": "2018-07-30T06:03:16.251",
    "price": 683.165
  },
  {
    "symbol": "Galactia",
    "date": "2018-07-30T06:03:16.257",
    "price": 820.331
  },
  {
    "symbol": "Eclipse",
    "date": "2018-07-30T06:03:18.121",
    "price": 48.22665094
  },
  {
    "symbol": "Borealis",
    "date": "2018-07-30T06:03:18.121",
    "price": 279.8718182
  },
  {
    "symbol": "Floral",
    "date": "2018-07-30T06:03:18.121",
    "price": 0.724522613
  },
  {
    "symbol": "Galactia",
    "date": "2018-07-30T06:03:18.121",
    "price": 19.33030374
  },
  {
    "symbol": "Floral",
    "date": "2018-07-30T06:03:18.121",
    "price": 10.14232558
  },
  {
    "symbol": "Astronomica",
    "date": "2018-07-30T06:03:18.121",
    "price": 15.26481481
  },
  {
    "symbol": "Koronis",
    "date": "2018-07-30T06:03:18.121",
    "price": 608.195
  },
  {
    "symbol": "Koronis",
    "date": "2018-07-30T06:03:18.121",
    "price": 9.778211382
  },
  {
    "symbol": "Koronis",
    "date": "2018-07-30T06:03:18.121",
    "price": 103.6656522
  },
  {
    "symbol": "Heliosphere",
    "date": "2018-07-30T06:03:18.121",
    "price": 25.00147692
  },
  {
    "symbol": "Koronis",
    "date": "2018-07-30T06:03:18.121",
    "price": 46.37961538
  },
  {
    "symbol": "Galactia",
    "date": "2018-07-30T06:03:18.121",
    "price": 30.94613636
  },
  {
    "symbol": "Deuteronic",
    "date": "2018-07-30T06:03:18.280",
    "price": 1870.6
  },
  {
    "symbol": "Eclipse",
    "date": "2018-07-30T06:03:18.289",
    "price": 178.067069
  },
  {
    "symbol": "Astronomica",
    "date": "2018-07-30T06:03:18.290",
    "price": 3.773564132
  },
  {
    "symbol": "Borealis",
    "date": "2018-07-30T06:03:18.290",
    "price": 6092.19
  },
  {
    "symbol": "Floral",
    "date": "2018-07-30T06:03:18.388",
    "price": 7.239833333
  },
  {
    "symbol": "Galactia",
    "date": "2018-07-30T06:03:18.388",
    "price": 68.42881356
  },
  {
    "symbol": "Deuteronic",
    "date": "2018-07-30T06:03:18.388",
    "price": 13.32120939
  },
  {
    "symbol": "Heliosphere",
    "date": "2018-07-30T06:03:18.388",
    "price": 20.39766169
  },
  {
    "symbol": "Celestial",
    "date": "2018-07-30T06:03:18.389",
    "price": 22.44566667
  },
  {
    "symbol": "Koronis",
    "date": "2018-07-30T06:03:18.389",
    "price": 1192.125
  },
  {
    "symbol": "Borealis",
    "date": "2018-07-30T06:03:18.389",
    "price": 23.99856574
  },
  {
    "symbol": "Borealis",
    "date": "2018-07-30T06:03:18.389",
    "price": 6.244361925
  },
  {
    "symbol": "Floral",
    "date": "2018-07-30T06:04:07.954",
    "price": 22.119
  },
  {
    "symbol": "Jupiter",
    "date": "2018-07-30T06:04:07.954",
    "price": 5.585457227
  },
  {
    "symbol": "Celestial",
    "date": "2018-07-30T06:04:07.956",
    "price": 332.7525
  },
  {
    "symbol": "Jupiter",
    "date": "2018-07-30T06:04:07.956",
    "price": 1879.3
  },
  {
    "symbol": "Floral",
    "date": "2018-07-30T06:04:07.956",
    "price": 147.8
  },
  {
    "symbol": "Deuteronic",
    "date": "2018-07-30T06:04:07.956",
    "price": 1854.89
  },
  {
    "symbol": "Deuteronic",
    "date": "2018-07-30T06:04:07.956",
    "price": 1865.4875
  },
  {
    "symbol": "Celestial",
    "date": "2018-07-30T06:04:07.956",
    "price": 63.77428571
  },
  {
    "symbol": "Borealis",
    "date": "2018-07-30T06:04:07.957",
    "price": 2010.536667
  },
  {
    "symbol": "Jupiter",
    "date": "2018-07-30T06:04:07.957",
    "price": 190.59
  },
  {
    "symbol": "Floral",
    "date": "2018-07-30T06:04:07.957",
    "price": 48.90444444
  },
  {
    "symbol": "Floral",
    "date": "2018-07-30T06:04:07.958",
    "price": 0.714517185
  },
  {
    "symbol": "Floral",
    "date": "2018-07-30T06:04:07.958",
    "price": 215.405
  },
  {
    "symbol": "Astronomica",
    "date": "2018-07-30T06:04:07.958",
    "price": 411.47375
  },
  {
    "symbol": "Floral",
    "date": "2018-07-30T06:04:07.958",
    "price": 28.512
  },
  {
    "symbol": "Heliosphere",
    "date": "2018-07-30T06:04:07.958",
    "price": 4138.365
  },
  {
    "symbol": "Heliosphere",
    "date": "2018-07-30T06:04:07.958",
    "price": 363.6426087
  },
  {
    "symbol": "Galactia",
    "date": "2018-07-30T06:04:07.961",
    "price": 25.96441558
  },
  {
    "symbol": "Jupiter",
    "date": "2018-07-30T06:04:07.976",
    "price": 642.5333333
  },
  {
    "symbol": "Astronomica",
    "date": "2018-07-30T06:04:07.977",
    "price": 250.3
  },
  {
    "symbol": "Koronis",
    "date": "2018-07-30T06:04:07.977",
    "price": 56.02619048
  },
  {
    "symbol": "Celestial",
    "date": "2018-07-30T06:04:07.977",
    "price": 26.43196078
  },
  {
    "symbol": "Galactia",
    "date": "2018-07-30T06:04:07.977",
    "price": 86.92703297
  },
  {
    "symbol": "Floral",
    "date": "2018-07-30T06:04:08.187",
    "price": 30.37
  },
  {
    "symbol": "Interstella",
    "date": "2018-07-30T06:04:08.187",
    "price": 3.823184358
  },
  {
    "symbol": "Lunatic",
    "date": "2018-07-30T06:04:08.187",
    "price": 8.130492611
  },
  {
    "symbol": "Jupiter",
    "date": "2018-07-30T06:04:08.189",
    "price": 780.53
  },
  {
    "symbol": "Borealis",
    "date": "2018-07-30T06:04:09.519",
    "price": 142.2052381
  },
  {
    "symbol": "Floral",
    "date": "2018-07-30T06:04:09.519",
    "price": 428.54
  },
  {
    "symbol": "Borealis",
    "date": "2018-07-30T06:04:09.541",
    "price": 1477.7425
  },
  {
    "symbol": "Interstella",
    "date": "2018-07-30T06:04:09.541",
    "price": 3383.89
  },
  {
    "symbol": "Jupiter",
    "date": "2018-07-30T06:04:09.541",
    "price": 214.9416667
  },
  {
    "symbol": "Deuteronic",
    "date": "2018-07-30T06:04:09.546",
    "price": 2451.533333
  },
  {
    "symbol": "Jupiter",
    "date": "2018-07-30T06:04:09.546",
    "price": 5.947705167
  },
  {
    "symbol": "Floral",
    "date": "2018-07-30T06:04:09.911",
    "price": 25.82705882
  },
  {
    "symbol": "Heliosphere",
    "date": "2018-07-30T06:04:09.911",
    "price": 603.6421429
  },
  {
    "symbol": "Astronomica",
    "date": "2018-07-30T06:04:10.053",
    "price": 84.83526316
  },
  {
    "symbol": "Eclipse",
    "date": "2018-07-30T06:04:10.053",
    "price": 1135.386667
  },
  {
    "symbol": "Celestial",
    "date": "2018-07-30T06:04:10.053",
    "price": 1326.96
  },
  {
    "symbol": "Celestial",
    "date": "2018-07-30T06:04:10.053",
    "price": 109.6608333
  },
  {
    "symbol": "Deuteronic",
    "date": "2018-07-30T06:04:10.053",
    "price": 1812.4675
  },
  {
    "symbol": "Eclipse",
    "date": "2018-07-30T06:04:10.053",
    "price": 14.9062592
  },
  {
    "symbol": "Floral",
    "date": "2018-07-30T06:04:10.059",
    "price": 0.873799213
  },
  {
    "symbol": "Eclipse",
    "date": "2018-07-30T06:04:10.059",
    "price": 12.13184019
  },
  {
    "symbol": "Deuteronic",
    "date": "2018-07-30T06:04:10.059",
    "price": 7296.71
  },
  {
    "symbol": "Deuteronic",
    "date": "2018-07-30T06:04:10.059",
    "price": 89.40731707
  },
  {
    "symbol": "Eclipse",
    "date": "2018-07-30T06:04:10.059",
    "price": 2478.475
  },
  {
    "symbol": "Interstella",
    "date": "2018-07-30T06:04:10.059",
    "price": 309.6990909
  },
  {
    "symbol": "Eclipse",
    "date": "2018-07-30T06:04:10.059",
    "price": 713.8385714
  },
  {
    "symbol": "Borealis",
    "date": "2018-07-30T06:04:10.155",
    "price": 5980.51
  },
  {
    "symbol": "Jupiter",
    "date": "2018-07-30T06:04:10.155",
    "price": 117.7939394
  },
  {
    "symbol": "Lunatic",
    "date": "2018-07-30T06:04:10.155",
    "price": 323.132
  },
  {
    "symbol": "Lunatic",
    "date": "2018-07-30T06:04:10.155",
    "price": 809.105
  },
  {
    "symbol": "Astronomica",
    "date": "2018-07-30T06:04:10.155",
    "price": 3195.53
  },
  {
    "symbol": "Deuteronic",
    "date": "2018-07-30T06:04:10.156",
    "price": 99.01547945
  },
  {
    "symbol": "Koronis",
    "date": "2018-07-30T06:04:10.156",
    "price": 233.243
  },
  {
    "symbol": "Eclipse",
    "date": "2018-07-30T06:04:10.156",
    "price": 156.98
  },
  {
    "symbol": "Jupiter",
    "date": "2018-07-30T06:04:10.156",
    "price": 68.95894737
  },
  {
    "symbol": "Borealis",
    "date": "2018-07-30T06:04:10.674",
    "price": 125.9619149
  },
  {
    "symbol": "Koronis",
    "date": "2018-07-30T06:04:10.855",
    "price": 15.4203268
  },
  {
    "symbol": "Galactia",
    "date": "2018-07-30T06:04:10.913",
    "price": 435.1127778
  },
  {
    "symbol": "Celestial",
    "date": "2018-07-30T06:04:10.913",
    "price": 1302.32
  },
  {
    "symbol": "Interstella",
    "date": "2018-07-30T06:04:10.913",
    "price": 1120.866667
  },
  {
    "symbol": "Astronomica",
    "date": "2018-07-30T06:04:10.913",
    "price": 137.4117391
  },
  {
    "symbol": "Deuteronic",
    "date": "2018-07-30T06:04:10.913",
    "price": 7123.22
  },
  {
    "symbol": "Interstella",
    "date": "2018-07-30T06:04:10.913",
    "price": 13.04317647
  },
  {
    "symbol": "Interstella",
    "date": "2018-07-30T06:04:10.932",
    "price": 3280.61
  },
  {
    "symbol": "Astronomica",
    "date": "2018-07-30T06:04:10.932",
    "price": 532.0933333
  },
  {
    "symbol": "Astronomica",
    "date": "2018-07-30T06:04:10.932",
    "price": 8.34021164
  },
  {
    "symbol": "Interstella",
    "date": "2018-07-30T06:04:10.932",
    "price": 7.638125
  },
  {
    "symbol": "Lunatic",
    "date": "2018-07-30T06:04:10.932",
    "price": 199.5975
  },
  {
    "symbol": "Jupiter",
    "date": "2018-07-30T06:04:10.932",
    "price": 37.52783019
  },
  {
    "symbol": "Eclipse",
    "date": "2018-07-30T06:04:10.942",
    "price": 192.0013462
  },
  {
    "symbol": "Lunatic",
    "date": "2018-07-30T06:04:10.942",
    "price": 16.924
  },
  {
    "symbol": "Galactia",
    "date": "2018-07-30T06:04:10.944",
    "price": 12.3839185
  },
  {
    "symbol": "Astronomica",
    "date": "2018-07-30T06:04:10.944",
    "price": 39.45696203
  },
  {
    "symbol": "Borealis",
    "date": "2018-07-30T06:04:10.944",
    "price": 6.934239257
  },
  {
    "symbol": "Celestial",
    "date": "2018-07-30T06:04:10.944",
    "price": 262.366
  },
  {
    "symbol": "Galactia",
    "date": "2018-07-30T06:04:10.945",
    "price": 346.1456522
  },
  {
    "symbol": "Galactia",
    "date": "2018-07-30T06:04:10.945",
    "price": 423.4784211
  },
  {
    "symbol": "Deuteronic",
    "date": "2018-07-30T06:04:10.945",
    "price": 539.81
  },
  {
    "symbol": "Deuteronic",
    "date": "2018-07-30T06:04:10.945",
    "price": 190.6010811
  },
  {
    "symbol": "Deuteronic",
    "date": "2018-07-30T06:04:11.112",
    "price": 2363.803333
  },
  {
    "symbol": "Heliosphere",
    "date": "2018-07-30T06:04:11.113",
    "price": 142.4096667
  },
  {
    "symbol": "Floral",
    "date": "2018-07-30T06:04:11.116",
    "price": 89.494
  },
  {
    "symbol": "Koronis",
    "date": "2018-07-30T06:04:11.116",
    "price": 1190.98
  },
  {
    "symbol": "Floral",
    "date": "2018-07-30T06:04:11.116",
    "price": 0.457024793
  },
  {
    "symbol": "Borealis",
    "date": "2018-07-30T06:04:11.117",
    "price": 15.19691517
  },
  {
    "symbol": "Astronomica",
    "date": "2018-07-30T06:04:11.122",
    "price": 9.821178344
  },
  {
    "symbol": "Floral",
    "date": "2018-07-30T06:04:11.122",
    "price": 151.1966667
  },
  {
    "symbol": "Lunatic",
    "date": "2018-07-30T06:04:11.122",
    "price": 326.534
  },
  {
    "symbol": "Borealis",
    "date": "2018-07-30T06:04:11.122",
    "price": 1492.4975
  },
  {
    "symbol": "Galactia",
    "date": "2018-07-30T06:04:11.122",
    "price": 993.7875
  },
  {
    "symbol": "Interstella",
    "date": "2018-07-30T06:04:11.122",
    "price": 18.98912791
  },
  {
    "symbol": "Jupiter",
    "date": "2018-07-30T06:04:11.123",
    "price": 73.27872727
  },
  {
    "symbol": "Galactia",
    "date": "2018-07-30T06:04:11.123",
    "price": 22.14208451
  },
  {
    "symbol": "Eclipse",
    "date": "2018-07-30T06:04:11.145",
    "price": 197.4622
  },
  {
    "symbol": "Interstella",
    "date": "2018-07-30T06:04:11.151",
    "price": 1097.333333
  },
  {
    "symbol": "Galactia",
    "date": "2018-07-30T06:04:11.151",
    "price": 11.54620087
  },
  {
    "symbol": "Astronomica",
    "date": "2018-07-30T06:04:11.151",
    "price": 389.57625
  },
  {
    "symbol": "Lunatic",
    "date": "2018-07-30T06:04:11.151",
    "price": 30.71433962
  },
  {
    "symbol": "Heliosphere",
    "date": "2018-07-30T06:04:11.151",
    "price": 18.78427015
  },
  {
    "symbol": "Deuteronic",
    "date": "2018-07-30T06:04:11.151",
    "price": 205.3341176
  },
  {
    "symbol": "Jupiter",
    "date": "2018-07-30T06:04:11.151",
    "price": 7.164946237
  },
  {
    "symbol": "Eclipse",
    "date": "2018-07-30T06:04:11.151",
    "price": 2487.8725
  },
  {
    "symbol": "Astronomica",
    "date": "2018-07-30T06:04:11.252",
    "price": 4.910234009
  },
  {
    "symbol": "Lunatic",
    "date": "2018-07-30T06:04:11.252",
    "price": 125.9184615
  },
  {
    "symbol": "Astronomica",
    "date": "2018-07-30T06:04:11.252",
    "price": 518.9233333
  },
  {
    "symbol": "Eclipse",
    "date": "2018-07-30T06:04:11.252",
    "price": 436.5634783
  },
  {
    "symbol": "Floral",
    "date": "2018-07-30T06:04:11.252",
    "price": 1.063608491
  },
  {
    "symbol": "Deuteronic",
    "date": "2018-07-30T06:04:11.252",
    "price": 110.9359677
  },
  {
    "symbol": "Borealis",
    "date": "2018-07-30T06:04:11.252",
    "price": 737.0225
  },
  {
    "symbol": "Galactia",
    "date": "2018-07-30T06:04:11.252",
    "price": 320.0008
  },
  {
    "symbol": "Koronis",
    "date": "2018-07-30T06:04:11.254",
    "price": 2407.79
  },
  {
    "symbol": "Koronis",
    "date": "2018-07-30T06:04:11.254",
    "price": 26.20021505
  },
  {
    "symbol": "Borealis",
    "date": "2018-07-30T06:04:11.254",
    "price": 2910.65
  },
  {
    "symbol": "Celestial",
    "date": "2018-07-30T06:04:12.428",
    "price": 165.45625
  },
  {
    "symbol": "Celestial",
    "date": "2018-07-30T06:04:12.428",
    "price": 445.6633333
  },
  {
    "symbol": "Lunatic",
    "date": "2018-07-30T06:04:12.428",
    "price": 322.646
  },
  {
    "symbol": "Koronis",
    "date": "2018-07-30T06:04:12.428",
    "price": 61.60925
  },
  {
    "symbol": "Astronomica",
    "date": "2018-07-30T06:04:12.428",
    "price": 34.12543478
  },
  {
    "symbol": "Jupiter",
    "date": "2018-07-30T06:04:12.428",
    "price": 8.8222
  },
  {
    "symbol": "Eclipse",
    "date": "2018-07-30T06:04:12.428",
    "price": 19.09669811
  },
  {
    "symbol": "Deuteronic",
    "date": "2018-07-30T06:04:12.439",
    "price": 8.50879397
  },
  {
    "symbol": "Borealis",
    "date": "2018-07-30T06:04:12.439",
    "price": 10.66509058
  },
  {
    "symbol": "Interstella",
    "date": "2018-07-30T06:04:12.591",
    "price": 39.97012048
  },
  {
    "symbol": "Lunatic",
    "date": "2018-07-30T06:04:12.591",
    "price": 1631.99
  },
  {
    "symbol": "Lunatic",
    "date": "2018-07-30T06:04:12.618",
    "price": 412.21
  },
  {
    "symbol": "Koronis",
    "date": "2018-07-30T06:04:12.618",
    "price": 14.78472727
  },
  {
    "symbol": "Lunatic",
    "date": "2018-07-30T06:04:12.618",
    "price": 128.5815385
  },
  {
    "symbol": "Deuteronic",
    "date": "2018-07-30T06:04:12.672",
    "price": 59.09123894
  },
  {
    "symbol": "Eclipse",
    "date": "2018-07-30T06:04:12.672",
    "price": 59.40372093
  },
  {
    "symbol": "Jupiter",
    "date": "2018-07-30T06:04:12.673",
    "price": 655.5533333
  },
  {
    "symbol": "Eclipse",
    "date": "2018-07-30T06:04:12.673",
    "price": 373.7944444
  },
  {
    "symbol": "Eclipse",
    "date": "2018-07-30T06:04:12.673",
    "price": 848.3433333
  },
  {
    "symbol": "Eclipse",
    "date": "2018-07-30T06:04:12.674",
    "price": 570.5838889
  },
  {
    "symbol": "Borealis",
    "date": "2018-07-30T06:04:12.674",
    "price": 371.63625
  },
  {
    "symbol": "Borealis",
    "date": "2018-07-30T06:04:12.674",
    "price": 49.44789916
  },
  {
    "symbol": "Interstella",
    "date": "2018-07-30T06:04:12.674",
    "price": 11.10740864
  },
  {
    "symbol": "Astronomica",
    "date": "2018-07-30T06:04:12.683",
    "price": 62.1164
  },
  {
    "symbol": "Eclipse",
    "date": "2018-07-30T06:04:12.683",
    "price": 2073.362
  },
  {
    "symbol": "Deuteronic",
    "date": "2018-07-30T06:04:12.685",
    "price": 3293.45
  },
  {
    "symbol": "Lunatic",
    "date": "2018-07-30T06:04:12.685",
    "price": 823.21
  },
  {
    "symbol": "Jupiter",
    "date": "2018-07-30T06:04:12.689",
    "price": 28.62374101
  },
  {
    "symbol": "Jupiter",
    "date": "2018-07-30T06:04:12.689",
    "price": 47.37376471
  },
  {
    "symbol": "Celestial",
    "date": "2018-07-30T06:04:12.689",
    "price": 88.10266667
  },
  {
    "symbol": "Lunatic",
    "date": "2018-07-30T06:04:12.689",
    "price": 12.69410853
  },
  {
    "symbol": "Astronomica",
    "date": "2018-07-30T06:04:12.689",
    "price": 5.102276423
  },
  {
    "symbol": "Interstella",
    "date": "2018-07-30T06:04:12.689",
    "price": 122.6207407
  },
  {
    "symbol": "Koronis",
    "date": "2018-07-30T06:04:12.689",
    "price": 2470.33
  },
  {
    "symbol": "Floral",
    "date": "2018-07-30T06:04:12.689",
    "price": 89.418
  },
  {
    "symbol": "Borealis",
    "date": "2018-07-30T06:04:12.689",
    "price": 660.4155556
  },
  {
    "symbol": "Eclipse",
    "date": "2018-07-30T06:04:12.689",
    "price": 10461.28
  },
  {
    "symbol": "Lunatic",
    "date": "2018-07-30T06:04:12.809",
    "price": 8.933135135
  },
  {
    "symbol": "Heliosphere",
    "date": "2018-07-30T06:04:12.809",
    "price": 2135.6275
  },
  {
    "symbol": "Lunatic",
    "date": "2018-07-30T06:04:12.810",
    "price": 4.783117647
  },
  {
    "symbol": "Heliosphere",
    "date": "2018-07-30T06:04:12.810",
    "price": 704.7883333
  },
  {
    "symbol": "Koronis",
    "date": "2018-07-30T06:04:12.810",
    "price": 831.3066667
  },
  {
    "symbol": "Floral",
    "date": "2018-07-30T06:04:12.810",
    "price": 15.046
  },
  {
    "symbol": "Deuteronic",
    "date": "2018-07-30T06:04:12.810",
    "price": 88.86986301
  },
  {
    "symbol": "Borealis",
    "date": "2018-07-30T06:04:12.811",
    "price": 28.01280952
  },
  {
    "symbol": "Heliosphere",
    "date": "2018-07-30T06:04:12.812",
    "price": 45.45569149
  },
  {
    "symbol": "Borealis",
    "date": "2018-07-30T06:04:12.818",
    "price": 138.247907
  },
  {
    "symbol": "Heliosphere",
    "date": "2018-07-30T06:04:12.818",
    "price": 862.805
  },
  {
    "symbol": "Astronomica",
    "date": "2018-07-30T06:04:12.818",
    "price": 3111.11
  },
  {
    "symbol": "Astronomica",
    "date": "2018-07-30T06:04:12.818",
    "price": 1539.125
  },
  {
    "symbol": "Deuteronic",
    "date": "2018-07-30T06:04:12.818",
    "price": 250.5123077
  },
  {
    "symbol": "Deuteronic",
    "date": "2018-07-30T06:04:12.818",
    "price": 62.2684466
  },
  {
    "symbol": "Jupiter",
    "date": "2018-07-30T06:04:12.819",
    "price": 65.48688525
  },
  {
    "symbol": "Jupiter",
    "date": "2018-07-30T06:04:12.819",
    "price": 17.87792793
  },
  {
    "symbol": "Heliosphere",
    "date": "2018-07-30T06:04:12.819",
    "price": 725.0633333
  },
  {
    "symbol": "Borealis",
    "date": "2018-07-30T06:04:12.819",
    "price": 19.63043333
  },
  {
    "symbol": "Borealis",
    "date": "2018-07-30T06:04:12.865",
    "price": 5945.37
  },
  {
    "symbol": "Borealis",
    "date": "2018-07-30T06:04:12.865",
    "price": 1959.823333
  },
  {
    "symbol": "Galactia",
    "date": "2018-07-30T06:04:12.865",
    "price": 7917.62
  },
  {
    "symbol": "Koronis",
    "date": "2018-07-30T06:04:12.889",
    "price": 2529.93
  },
  {
    "symbol": "Galactia",
    "date": "2018-07-30T06:04:12.890",
    "price": 15.79221344
  },
  {
    "symbol": "Jupiter",
    "date": "2018-07-30T06:04:12.890",
    "price": 4022.97
  },
  {
    "symbol": "Koronis",
    "date": "2018-07-30T06:04:12.890",
    "price": 5.372989247
  },
  {
    "symbol": "Interstella",
    "date": "2018-07-30T06:04:12.890",
    "price": 4.924992614
  },
  {
    "symbol": "Astronomica",
    "date": "2018-07-30T06:04:12.890",
    "price": 41.93716216
  },
  {
    "symbol": "Galactia",
    "date": "2018-07-30T06:04:12.891",
    "price": 66.12295082
  },
  {
    "symbol": "Galactia",
    "date": "2018-07-30T06:04:12.891",
    "price": 66.90563025
  },
  {
    "symbol": "Borealis",
    "date": "2018-07-30T06:04:13.029",
    "price": 5933.73
  },
  {
    "symbol": "Eclipse",
    "date": "2018-07-30T06:04:13.030",
    "price": 753.695
  },
  {
    "symbol": "Celestial",
    "date": "2018-07-30T06:04:13.030",
    "price": 39.39393939
  },
  {
    "symbol": "Floral",
    "date": "2018-07-30T06:04:14.089",
    "price": 1.265258856
  },
  {
    "symbol": "Koronis",
    "date": "2018-07-30T06:04:14.089",
    "price": 841.6733333
  },
  {
    "symbol": "Lunatic",
    "date": "2018-07-30T06:04:14.171",
    "price": 23.19535211
  },
  {
    "symbol": "Celestial",
    "date": "2018-07-30T06:04:14.171",
    "price": 1.392323561
  },
  {
    "symbol": "Borealis",
    "date": "2018-07-30T06:04:14.171",
    "price": 10.01548552
  },
  {
    "symbol": "Koronis",
    "date": "2018-07-30T06:04:14.177",
    "price": 55.412
  },
  {
    "symbol": "Koronis",
    "date": "2018-07-30T06:04:16.835",
    "price": 64.95684211
  },
  {
    "symbol": "Celestial",
    "date": "2018-07-30T06:04:16.835",
    "price": 423.07
  },
  {
    "symbol": "Floral",
    "date": "2018-07-30T06:04:16.835",
    "price": 465.5
  },
  {
    "symbol": "Koronis",
    "date": "2018-07-30T06:04:16.838",
    "price": 11.28438914
  },
  {
    "symbol": "Galactia",
    "date": "2018-07-30T06:04:16.853",
    "price": 20.98033943
  },
  {
    "symbol": "Celestial",
    "date": "2018-07-30T06:04:16.868",
    "price": 1.653984476
  },
  {
    "symbol": "Astronomica",
    "date": "2018-07-30T06:04:16.870",
    "price": 9.632915361
  },
  {
    "symbol": "Deuteronic",
    "date": "2018-07-30T06:04:16.870",
    "price": 174.2159459
  },
  {
    "symbol": "Interstella",
    "date": "2018-07-30T06:04:16.870",
    "price": 19.38982353
  },
  {
    "symbol": "Eclipse",
    "date": "2018-07-30T06:04:16.878",
    "price": 1157.872222
  },
  {
    "symbol": "Jupiter",
    "date": "2018-07-30T06:04:16.878",
    "price": 22.6725
  },
  {
    "symbol": "Koronis",
    "date": "2018-07-30T06:04:16.878",
    "price": 41.83457627
  },
  {
    "symbol": "Koronis",
    "date": "2018-07-30T06:04:16.878",
    "price": 6.172020202
  },
  {
    "symbol": "Lunatic",
    "date": "2018-07-30T06:04:16.879",
    "price": 103.49
  },
  {
    "symbol": "Heliosphere",
    "date": "2018-07-30T06:04:16.880",
    "price": 366.5941667
  },
  {
    "symbol": "Eclipse",
    "date": "2018-07-30T06:04:16.880",
    "price": 5157.205
  },
  {
    "symbol": "Deuteronic",
    "date": "2018-07-30T06:04:16.880",
    "price": 12.55003876
  },
  {
    "symbol": "Interstella",
    "date": "2018-07-30T06:04:16.921",
    "price": 474.1142857
  },
  {
    "symbol": "Koronis",
    "date": "2018-07-30T06:04:16.921",
    "price": 12.86473958
  },
  {
    "symbol": "Celestial",
    "date": "2018-07-30T06:04:16.922",
    "price": 2.291839709
  },
  {
    "symbol": "Celestial",
    "date": "2018-07-30T06:04:16.922",
    "price": 9.367272727
  },
  {
    "symbol": "Lunatic",
    "date": "2018-07-30T06:04:16.922",
    "price": 1635.84
  },
  {
    "symbol": "Eclipse",
    "date": "2018-07-30T06:04:16.925",
    "price": 41.29174089
  },
  {
    "symbol": "Interstella",
    "date": "2018-07-30T06:04:16.925",
    "price": 3281.69
  },
  {
    "symbol": "Floral",
    "date": "2018-07-30T06:04:16.925",
    "price": 0.611015424
  },
  {
    "symbol": "Koronis",
    "date": "2018-07-30T06:04:16.925",
    "price": 7.724763407
  },
  {
    "symbol": "Celestial",
    "date": "2018-07-30T06:04:16.944",
    "price": 1.447955865
  },
  {
    "symbol": "Koronis",
    "date": "2018-07-30T06:04:16.945",
    "price": 3.724823349
  },
  {
    "symbol": "Heliosphere",
    "date": "2018-07-30T06:04:16.945",
    "price": 8900.85
  },
  {
    "symbol": "Deuteronic",
    "date": "2018-07-30T06:04:16.946",
    "price": 46.79517986
  },
  {
    "symbol": "Koronis",
    "date": "2018-07-30T06:04:16.947",
    "price": 52.03468085
  },
  {
    "symbol": "Astronomica",
    "date": "2018-07-30T06:04:16.947",
    "price": 55.38410714
  },
  {
    "symbol": "Eclipse",
    "date": "2018-07-30T06:04:16.947",
    "price": 201.9764
  },
  {
    "symbol": "Lunatic",
    "date": "2018-07-30T06:04:16.955",
    "price": 18.40866667
  },
  {
    "symbol": "Koronis",
    "date": "2018-07-30T06:04:16.955",
    "price": 14.27410405
  },
  {
    "symbol": "Interstella",
    "date": "2018-07-30T06:04:16.955",
    "price": 1101.143333
  },
  {
    "symbol": "Eclipse",
    "date": "2018-07-30T06:04:16.955",
    "price": 848.105
  },
  {
    "symbol": "Deuteronic",
    "date": "2018-07-30T06:04:17.054",
    "price": 6411.04
  },
  {
    "symbol": "Interstella",
    "date": "2018-07-30T06:04:17.054",
    "price": 63.99269231
  },
  {
    "symbol": "Galactia",
    "date": "2018-07-30T06:04:17.054",
    "price": 11.59501462
  },
  {
    "symbol": "Eclipse",
    "date": "2018-07-30T06:04:17.061",
    "price": 183.3544643
  },
  {
    "symbol": "Koronis",
    "date": "2018-07-30T06:04:17.062",
    "price": 59.41095238
  },
  {
    "symbol": "Floral",
    "date": "2018-07-30T06:04:17.062",
    "price": 47.742
  },
  {
    "symbol": "Astronomica",
    "date": "2018-07-30T06:04:17.062",
    "price": 3.812314251
  },
  {
    "symbol": "Astronomica",
    "date": "2018-07-30T06:04:17.062",
    "price": 36.39816092
  },
  {
    "symbol": "Jupiter",
    "date": "2018-07-30T06:04:17.063",
    "price": 1320.433333
  },
  {
    "symbol": "Astronomica",
    "date": "2018-07-30T06:04:17.063",
    "price": 208.668
  },
  {
    "symbol": "Celestial",
    "date": "2018-07-30T06:04:17.068",
    "price": 112.4681818
  },
  {
    "symbol": "Deuteronic",
    "date": "2018-07-30T06:04:17.068",
    "price": 67.16244681
  },
  {
    "symbol": "Astronomica",
    "date": "2018-07-30T06:04:17.068",
    "price": 6.028618677
  },
  {
    "symbol": "Lunatic",
    "date": "2018-07-30T06:04:17.068",
    "price": 4.324378238
  },
  {
    "symbol": "Borealis",
    "date": "2018-07-30T06:04:17.072",
    "price": 5927.77
  },
  {
    "symbol": "Floral",
    "date": "2018-07-30T06:04:17.072",
    "price": 36.88153846
  },
  {
    "symbol": "Jupiter",
    "date": "2018-07-30T06:04:17.072",
    "price": 1966.49
  },
  {
    "symbol": "Galactia",
    "date": "2018-07-30T06:04:17.075",
    "price": 1601.198
  },
  {
    "symbol": "Interstella",
    "date": "2018-07-30T06:04:17.075",
    "price": 65.62784314
  },
  {
    "symbol": "Galactia",
    "date": "2018-07-30T06:04:17.075",
    "price": 3950.94
  },
  {
    "symbol": "Eclipse",
    "date": "2018-07-30T06:04:17.075",
    "price": 845.95
  },
  {
    "symbol": "Floral",
    "date": "2018-07-30T06:04:17.075",
    "price": 1.03112069
  },
  {
    "symbol": "Koronis",
    "date": "2018-07-30T06:04:17.144",
    "price": 4.650994475
  },
  {
    "symbol": "Floral",
    "date": "2018-07-30T06:04:19.669",
    "price": 237.705
  },
  {
    "symbol": "Jupiter",
    "date": "2018-07-30T06:04:19.673",
    "price": 126.0709677
  },
  {
    "symbol": "Eclipse",
    "date": "2018-07-30T06:04:19.738",
    "price": 854.1766667
  },
  {
    "symbol": "Astronomica",
    "date": "2018-07-30T06:04:19.738",
    "price": 133.3721739
  },
  {
    "symbol": "Astronomica",
    "date": "2018-07-30T06:04:19.738",
    "price": 58.43867925
  },
  {
    "symbol": "Deuteronic",
    "date": "2018-07-30T06:04:19.742",
    "price": 11.87977055
  },
  {
    "symbol": "Borealis",
    "date": "2018-07-30T06:04:20.151",
    "price": 351.52
  },
  {
    "symbol": "Galactia",
    "date": "2018-07-30T06:04:20.151",
    "price": 650.2116667
  },
  {
    "symbol": "Celestial",
    "date": "2018-07-30T06:04:20.151",
    "price": 88.90857143
  },
  {
    "symbol": "Deuteronic",
    "date": "2018-07-30T06:04:20.151",
    "price": 1560.925
  },
  {
    "symbol": "Borealis",
    "date": "2018-07-30T06:04:20.151",
    "price": 301.6015
  },
  {
    "symbol": "Jupiter",
    "date": "2018-07-30T06:04:20.165",
    "price": 53.91333333
  },
  {
    "symbol": "Lunatic",
    "date": "2018-07-30T06:04:20.165",
    "price": 241.16
  },
  {
    "symbol": "Interstella",
    "date": "2018-07-30T06:04:20.171",
    "price": 110.2636667
  },
  {
    "symbol": "Interstella",
    "date": "2018-07-30T06:04:20.183",
    "price": 87.86605263
  },
  {
    "symbol": "Galactia",
    "date": "2018-07-30T06:04:20.183",
    "price": 1927.1525
  },
  {
    "symbol": "Heliosphere",
    "date": "2018-07-30T06:04:20.194",
    "price": 817.1245455
  },
  {
    "symbol": "Celestial",
    "date": "2018-07-30T06:04:20.194",
    "price": 19.27615385
  },
  {
    "symbol": "Astronomica",
    "date": "2018-07-30T06:04:20.194",
    "price": 49.48096774
  },
  {
    "symbol": "Galactia",
    "date": "2018-07-30T06:04:20.194",
    "price": 1940.9175
  },
  {
    "symbol": "Deuteronic",
    "date": "2018-07-30T06:04:20.194",
    "price": 34.50337079
  },
  {
    "symbol": "Eclipse",
    "date": "2018-07-30T06:04:20.199",
    "price": 118.5556322
  },
  {
    "symbol": "Celestial",
    "date": "2018-07-30T06:04:20.199",
    "price": 308.9975
  },
  {
    "symbol": "Koronis",
    "date": "2018-07-30T06:04:20.199",
    "price": 179.0071429
  },
  {
    "symbol": "Koronis",
    "date": "2018-07-30T06:04:20.199",
    "price": 845.61
  },
  {
    "symbol": "Eclipse",
    "date": "2018-07-30T06:04:20.199",
    "price": 104.9291753
  },
  {
    "symbol": "Interstella",
    "date": "2018-07-30T06:04:20.199",
    "price": 562.045
  },
  {
    "symbol": "Lunatic",
    "date": "2018-07-30T06:04:20.199",
    "price": 188.3022222
  },
  {
    "symbol": "Interstella",
    "date": "2018-07-30T06:04:20.199",
    "price": 243.0257143
  },
  {
    "symbol": "Celestial",
    "date": "2018-07-30T06:04:20.199",
    "price": 2.716146993
  },
  {
    "symbol": "Koronis",
    "date": "2018-07-30T06:04:20.199",
    "price": 853.46
  },
  {
    "symbol": "Heliosphere",
    "date": "2018-07-30T06:04:20.208",
    "price": 988.3888889
  },
  {
    "symbol": "Galactia",
    "date": "2018-07-30T06:04:20.208",
    "price": 3910.355
  },
  {
    "symbol": "Koronis",
    "date": "2018-07-30T06:04:20.208",
    "price": 135.7926316
  },
  {
    "symbol": "Lunatic",
    "date": "2018-07-30T06:04:20.208",
    "price": 93.40444444
  },
  {
    "symbol": "Interstella",
    "date": "2018-07-30T06:04:20.209",
    "price": 4.994769001
  },
  {
    "symbol": "Interstella",
    "date": "2018-07-30T06:04:20.209",
    "price": 76.78209302
  },
  {
    "symbol": "Interstella",
    "date": "2018-07-30T06:04:20.209",
    "price": 653.922
  },
  {
    "symbol": "Jupiter",
    "date": "2018-07-30T06:04:20.209",
    "price": 5.57367052
  },
  {
    "symbol": "Lunatic",
    "date": "2018-07-30T06:04:20.209",
    "price": 2.100998767
  },
  {
    "symbol": "Interstella",
    "date": "2018-07-30T06:04:20.209",
    "price": 18.65277457
  },
  {
    "symbol": "Floral",
    "date": "2018-07-30T06:04:20.209",
    "price": 28.37352941
  },
  {
    "symbol": "Borealis",
    "date": "2018-07-30T06:04:20.209",
    "price": 91.89215385
  },
  {
    "symbol": "Astronomica",
    "date": "2018-07-30T06:04:20.209",
    "price": 3043.11
  },
  {
    "symbol": "Interstella",
    "date": "2018-07-30T06:04:20.209",
    "price": 3178.97
  },
  {
    "symbol": "Eclipse",
    "date": "2018-07-30T06:04:20.209",
    "price": 718.6985714
  },
  {
    "symbol": "Borealis",
    "date": "2018-07-30T06:04:20.211",
    "price": 24.21176707
  },
  {
    "symbol": "Eclipse",
    "date": "2018-07-30T06:04:20.212",
    "price": 5069.98
  },
  {
    "symbol": "Deuteronic",
    "date": "2018-07-30T06:04:21.968",
    "price": 672.26
  },
  {
    "symbol": "Galactia",
    "date": "2018-07-30T06:04:21.968",
    "price": 715.0072727
  },
  {
    "symbol": "Lunatic",
    "date": "2018-07-30T06:04:21.968",
    "price": 12.43369565
  },
  {
    "symbol": "Koronis",
    "date": "2018-07-30T06:04:21.968",
    "price": 236.6845455
  },
  {
    "symbol": "Galactia",
    "date": "2018-07-30T06:04:21.968",
    "price": 98.51227848
  },
  {
    "symbol": "Interstella",
    "date": "2018-07-30T06:04:21.968",
    "price": 89.12722222
  },
  {
    "symbol": "Heliosphere",
    "date": "2018-07-30T06:04:21.980",
    "price": 41.07118721
  },
  {
    "symbol": "Eclipse",
    "date": "2018-07-30T06:04:21.985",
    "price": 113.5751111
  },
  {
    "symbol": "Koronis",
    "date": "2018-07-30T06:04:22.024",
    "price": 14.09535519
  },
  {
    "symbol": "Deuteronic",
    "date": "2018-07-30T06:04:22.027",
    "price": 15.96955381
  },
  {
    "symbol": "Galactia",
    "date": "2018-07-30T06:04:22.027",
    "price": 700.3418182
  },
  {
    "symbol": "Deuteronic",
    "date": "2018-07-30T06:04:22.027",
    "price": 64.39894737
  },
  {
    "symbol": "Celestial",
    "date": "2018-07-30T06:04:22.027",
    "price": 3.446666667
  },
  {
    "symbol": "Koronis",
    "date": "2018-07-30T06:04:22.027",
    "price": 426.5266667
  },
  {
    "symbol": "Galactia",
    "date": "2018-07-30T06:04:22.027",
    "price": 7615.83
  },
  {
    "symbol": "Eclipse",
    "date": "2018-07-30T06:04:22.027",
    "price": 273.0751351
  },
  {
    "symbol": "Borealis",
    "date": "2018-07-30T06:04:22.029",
    "price": 14.31004796
  },
  {
    "symbol": "Interstella",
    "date": "2018-07-30T06:04:22.029",
    "price": 73.74395349
  },
  {
    "symbol": "Lunatic",
    "date": "2018-07-30T06:04:22.029",
    "price": 2.40662465
  },
  {
    "symbol": "Galactia",
    "date": "2018-07-30T06:04:22.029",
    "price": 7681.26
  },
  {
    "symbol": "Galactia",
    "date": "2018-07-30T06:04:22.030",
    "price": 1085.58
  },
  {
    "symbol": "Heliosphere",
    "date": "2018-07-30T06:04:22.034",
    "price": 262.4932353
  },
  {
    "symbol": "Lunatic",
    "date": "2018-07-30T06:04:22.039",
    "price": 9.42576087
  },
  {
    "symbol": "Heliosphere",
    "date": "2018-07-30T06:04:22.039",
    "price": 180.5302
  },
  {
    "symbol": "Floral",
    "date": "2018-07-30T06:04:22.041",
    "price": 69.6
  },
  {
    "symbol": "Koronis",
    "date": "2018-07-30T06:04:22.041",
    "price": 253.335
  },
  {
    "symbol": "Galactia",
    "date": "2018-07-30T06:04:22.041",
    "price": 1879.155
  },
  {
    "symbol": "Galactia",
    "date": "2018-07-30T06:04:22.092",
    "price": 96.64844156
  },
  {
    "symbol": "Deuteronic",
    "date": "2018-07-30T06:04:22.092",
    "price": 1505.51
  },
  {
    "symbol": "Eclipse",
    "date": "2018-07-30T06:04:22.092",
    "price": 49.96675
  },
  {
    "symbol": "Borealis",
    "date": "2018-07-30T06:04:22.092",
    "price": 844.8242857
  },
  {
    "symbol": "Deuteronic",
    "date": "2018-07-30T06:04:22.092",
    "price": 179.5793939
  },
  {
    "symbol": "Deuteronic",
    "date": "2018-07-30T06:04:22.101",
    "price": 270.3718182
  },
  {
    "symbol": "Deuteronic",
    "date": "2018-07-30T06:04:22.101",
    "price": 308.5552632
  },
  {
    "symbol": "Floral",
    "date": "2018-07-30T06:04:22.101",
    "price": 44.77454545
  },
  {
    "symbol": "Interstella",
    "date": "2018-07-30T06:04:22.112",
    "price": 319.108
  },
  {
    "symbol": "Interstella",
    "date": "2018-07-30T06:04:22.112",
    "price": 131.4341667
  },
  {
    "symbol": "Astronomica",
    "date": "2018-07-30T06:04:22.113",
    "price": 375.91125
  },
  {
    "symbol": "Borealis",
    "date": "2018-07-30T06:04:22.113",
    "price": 597.277
  },
  {
    "symbol": "Eclipse",
    "date": "2018-07-30T06:04:22.118",
    "price": 20.63991803
  },
  {
    "symbol": "Koronis",
    "date": "2018-07-30T06:04:22.118",
    "price": 4.48854386
  },
  {
    "symbol": "Lunatic",
    "date": "2018-07-30T06:04:22.118",
    "price": 60.08482759
  },
  {
    "symbol": "Astronomica",
    "date": "2018-07-30T06:04:22.118",
    "price": 17.45614943
  },
  {
    "symbol": "Borealis",
    "date": "2018-07-30T06:04:22.118",
    "price": 6028.56
  },
  {
    "symbol": "Interstella",
    "date": "2018-07-30T06:04:22.118",
    "price": 4.439857752
  },
  {
    "symbol": "Deuteronic",
    "date": "2018-07-30T06:04:22.118",
    "price": 66.99034091
  },
  {
    "symbol": "Floral",
    "date": "2018-07-30T06:04:22.506",
    "price": 0.738983558
  },
  {
    "symbol": "Koronis",
    "date": "2018-07-30T06:04:22.506",
    "price": 1263.965
  },
  {
    "symbol": "Astronomica",
    "date": "2018-07-30T06:04:22.506",
    "price": 1532.32
  },
  {
    "symbol": "Eclipse",
    "date": "2018-07-30T06:04:22.506",
    "price": 18.42085145
  },
  {
    "symbol": "Astronomica",
    "date": "2018-07-30T06:04:23.577",
    "price": 67.30543478
  },
  {
    "symbol": "Astronomica",
    "date": "2018-07-30T06:04:23.577",
    "price": 8.809454023
  },
  {
    "symbol": "Borealis",
    "date": "2018-07-30T06:04:23.577",
    "price": 48.75232
  },
  {
    "symbol": "Jupiter",
    "date": "2018-07-30T06:04:23.577",
    "price": 12.73654485
  },
  {
    "symbol": "Celestial",
    "date": "2018-07-30T06:04:23.583",
    "price": 595.975
  },
  {
    "symbol": "Heliosphere",
    "date": "2018-07-30T06:04:23.583",
    "price": 131.4682353
  },
  {
    "symbol": "Deuteronic",
    "date": "2018-07-30T06:04:23.585",
    "price": 30.40031414
  },
  {
    "symbol": "Celestial",
    "date": "2018-07-30T06:04:23.585",
    "price": 146.91875
  },
  {
    "symbol": "Floral",
    "date": "2018-07-30T06:04:38.468",
    "price": 247
  },
  {
    "symbol": "Borealis",
    "date": "2018-07-30T06:04:38.468",
    "price": 6.970984163
  },
  {
    "symbol": "Borealis",
    "date": "2018-07-30T06:04:38.469",
    "price": 6235.34
  },
  {
    "symbol": "Heliosphere",
    "date": "2018-07-30T06:04:38.469",
    "price": 1771.554
  },
  {
    "symbol": "Heliosphere",
    "date": "2018-07-30T06:04:38.469",
    "price": 4387.635
  },
  {
    "symbol": "Koronis",
    "date": "2018-07-30T06:04:38.479",
    "price": 16.77302013
  },
  {
    "symbol": "Jupiter",
    "date": "2018-07-30T06:04:40.424",
    "price": 1269.57
  },
  {
    "symbol": "Heliosphere",
    "date": "2018-07-30T06:04:40.473",
    "price": 2891.23
  },
  {
    "symbol": "Deuteronic",
    "date": "2018-07-30T06:04:40.473",
    "price": 116.6436
  },
  {
    "symbol": "Galactia",
    "date": "2018-07-30T06:04:42.953",
    "price": 139.1392453
  },
  {
    "symbol": "Floral",
    "date": "2018-07-30T06:04:47.011",
    "price": 503.64
  },
  {
    "symbol": "Eclipse",
    "date": "2018-07-30T06:04:47.012",
    "price": 1467.444286
  },
  {
    "symbol": "Jupiter",
    "date": "2018-07-30T06:04:47.012",
    "price": 257.5533333
  },
  {
    "symbol": "Jupiter",
    "date": "2018-07-30T06:04:47.012",
    "price": 85.076
  },
  {
    "symbol": "Jupiter",
    "date": "2018-07-30T06:04:47.012",
    "price": 97.44589744
  },
  {
    "symbol": "Eclipse",
    "date": "2018-07-30T06:05:41.141",
    "price": 53.39469072
  },
  {
    "symbol": "Koronis",
    "date": "2018-07-30T06:05:41.143",
    "price": 26.01608247
  },
  {
    "symbol": "Galactia",
    "date": "2018-07-30T06:05:41.143",
    "price": 1487.542
  },
  {
    "symbol": "Celestial",
    "date": "2018-07-30T06:05:41.143",
    "price": 13.83895349
  },
  {
    "symbol": "Astronomica",
    "date": "2018-07-30T06:05:41.143",
    "price": 619.148
  },
  {
    "symbol": "Celestial",
    "date": "2018-07-30T06:05:41.143",
    "price": 2.561437908
  },
  {
    "symbol": "Deuteronic",
    "date": "2018-07-30T06:05:41.152",
    "price": 1434.495
  },
  {
    "symbol": "Borealis",
    "date": "2018-07-30T06:05:41.152",
    "price": 449.4014286
  },
  {
    "symbol": "Jupiter",
    "date": "2018-07-30T06:05:41.152",
    "price": 1282.616667
  },
  {
    "symbol": "Heliosphere",
    "date": "2018-07-30T06:05:41.152",
    "price": 8762.6
  },
  {
    "symbol": "Eclipse",
    "date": "2018-07-30T06:05:41.153",
    "price": 5227.105
  },
  {
    "symbol": "Koronis",
    "date": "2018-07-30T06:05:41.156",
    "price": 141.3527778
  },
  {
    "symbol": "Floral",
    "date": "2018-07-30T06:05:41.175",
    "price": 0.975391969
  },
  {
    "symbol": "Astronomica",
    "date": "2018-07-30T06:05:41.175",
    "price": 35.58511628
  },
  {
    "symbol": "Koronis",
    "date": "2018-07-30T06:05:41.176",
    "price": 1260.135
  },
  {
    "symbol": "Interstella",
    "date": "2018-07-30T06:05:41.176",
    "price": 1541.93
  },
  {
    "symbol": "Interstella",
    "date": "2018-07-30T06:05:41.176",
    "price": 1554.54
  },
  {
    "symbol": "Heliosphere",
    "date": "2018-07-30T06:05:41.176",
    "price": 57.85143791
  },
  {
    "symbol": "Interstella",
    "date": "2018-07-30T06:05:41.176",
    "price": 97.778125
  },
  {
    "symbol": "Floral",
    "date": "2018-07-30T06:05:41.524",
    "price": 55.85111111
  },
  {
    "symbol": "Jupiter",
    "date": "2018-07-30T06:05:41.524",
    "price": 1911.715
  },
  {
    "symbol": "Floral",
    "date": "2018-07-30T06:05:41.524",
    "price": 0.586202091
  },
  {
    "symbol": "Koronis",
    "date": "2018-07-30T06:05:41.526",
    "price": 1273.245
  },
  {
    "symbol": "Lunatic",
    "date": "2018-07-30T06:05:41.526",
    "price": 1774.96
  },
  {
    "symbol": "Koronis",
    "date": "2018-07-30T06:05:41.534",
    "price": 2571.81
  },
  {
    "symbol": "Heliosphere",
    "date": "2018-07-30T06:05:41.535",
    "price": 2977.09
  },
  {
    "symbol": "Borealis",
    "date": "2018-07-30T06:05:41.535",
    "price": 94.68462687
  },
  {
    "symbol": "Koronis",
    "date": "2018-07-30T06:05:41.537",
    "price": 2601.05
  },
  {
    "symbol": "Interstella",
    "date": "2018-07-30T06:05:41.566",
    "price": 54.32310345
  },
  {
    "symbol": "Celestial",
    "date": "2018-07-30T06:05:41.566",
    "price": 52.70545455
  },
  {
    "symbol": "Deuteronic",
    "date": "2018-07-30T06:05:41.584",
    "price": 384.0606667
  },
  {
    "symbol": "Floral",
    "date": "2018-07-30T06:05:41.598",
    "price": 128.27
  },
  {
    "symbol": "Borealis",
    "date": "2018-07-30T06:05:41.598",
    "price": 36.07189655
  },
  {
    "symbol": "Eclipse",
    "date": "2018-07-30T06:05:41.598",
    "price": 585.4366667
  },
  {
    "symbol": "Astronomica",
    "date": "2018-07-30T06:05:41.617",
    "price": 86.68771429
  },
  {
    "symbol": "Interstella",
    "date": "2018-07-30T06:05:41.617",
    "price": 1040.56
  },
  {
    "symbol": "Eclipse",
    "date": "2018-07-30T06:05:41.617",
    "price": 401.3157692
  },
  {
    "symbol": "Celestial",
    "date": "2018-07-30T06:05:41.623",
    "price": 18.2421875
  },
  {
    "symbol": "Galactia",
    "date": "2018-07-30T06:05:41.623",
    "price": 9.37994898
  },
  {
    "symbol": "Borealis",
    "date": "2018-07-30T06:05:41.624",
    "price": 117.1296296
  },
  {
    "symbol": "Astronomica",
    "date": "2018-07-30T06:05:41.626",
    "price": 1529.7
  },
  {
    "symbol": "Koronis",
    "date": "2018-07-30T06:05:41.626",
    "price": 87.559
  },
  {
    "symbol": "Lunatic",
    "date": "2018-07-30T06:05:41.626",
    "price": 438.12
  },
  {
    "symbol": "Deuteronic",
    "date": "2018-07-30T06:05:41.626",
    "price": 1446.7675
  },
  {
    "symbol": "Heliosphere",
    "date": "2018-07-30T06:05:41.626",
    "price": 9015.33
  },
  {
    "symbol": "Floral",
    "date": "2018-07-30T06:05:41.626",
    "price": 4.817809524
  },
  {
    "symbol": "Floral",
    "date": "2018-07-30T06:05:41.626",
    "price": 5.1368
  },
  {
    "symbol": "Floral",
    "date": "2018-07-30T06:05:41.626",
    "price": 5.69989011
  },
  {
    "symbol": "Floral",
    "date": "2018-07-30T06:05:41.626",
    "price": 12.2997619
  },
  {
    "symbol": "Galactia",
    "date": "2018-07-30T06:05:41.626",
    "price": 308.3654167
  },
  {
    "symbol": "Koronis",
    "date": "2018-07-30T06:05:41.626",
    "price": 1300.39
  },
  {
    "symbol": "Heliosphere",
    "date": "2018-07-30T06:05:41.630",
    "price": 433.5247619
  },
  {
    "symbol": "Celestial",
    "date": "2018-07-30T06:05:41.651",
    "price": 8.876434109
  },
  {
    "symbol": "Lunatic",
    "date": "2018-07-30T06:05:41.651",
    "price": 14.90235294
  },
  {
    "symbol": "Celestial",
    "date": "2018-07-30T06:05:41.651",
    "price": 20.31892857
  },
  {
    "symbol": "Koronis",
    "date": "2018-07-30T06:05:41.651",
    "price": 80.3725
  },
  {
    "symbol": "Celestial",
    "date": "2018-07-30T06:05:41.668",
    "price": 19.5240678
  },
  {
    "symbol": "Celestial",
    "date": "2018-07-30T06:05:42.042",
    "price": 18.51380952
  },
  {
    "symbol": "Galactia",
    "date": "2018-07-30T06:05:42.065",
    "price": 63.84692308
  },
  {
    "symbol": "Galactia",
    "date": "2018-07-30T06:05:42.065",
    "price": 20.82385915
  },
  {
    "symbol": "Jupiter",
    "date": "2018-07-30T06:05:42.066",
    "price": 117.3760606
  },
  {
    "symbol": "Interstella",
    "date": "2018-07-30T06:05:42.068",
    "price": 442.4728571
  },
  {
    "symbol": "Deuteronic",
    "date": "2018-07-30T06:05:42.068",
    "price": 19.61655405
  },
  {
    "symbol": "Astronomica",
    "date": "2018-07-30T06:05:42.096",
    "price": 3088.62
  },
  {
    "symbol": "Heliosphere",
    "date": "2018-07-30T06:05:42.096",
    "price": 118.5684211
  },
  {
    "symbol": "Galactia",
    "date": "2018-07-30T06:05:42.096",
    "price": 3653.455
  },
  {
    "symbol": "Interstella",
    "date": "2018-07-30T06:05:42.096",
    "price": 26.63365217
  },
  {
    "symbol": "Heliosphere",
    "date": "2018-07-30T06:05:45.261",
    "price": 9102.82
  },
  {
    "symbol": "Astronomica",
    "date": "2018-07-30T06:05:45.261",
    "price": 9.011911765
  },
  {
    "symbol": "Astronomica",
    "date": "2018-07-30T06:05:45.268",
    "price": 442.81
  },
  {
    "symbol": "Astronomica",
    "date": "2018-07-30T06:05:45.268",
    "price": 284.5609091
  },
  {
    "symbol": "Interstella",
    "date": "2018-07-30T06:05:45.268",
    "price": 90.85882353
  },
  {
    "symbol": "Floral",
    "date": "2018-07-30T06:05:45.268",
    "price": 506.7
  },
  {
    "symbol": "Celestial",
    "date": "2018-07-30T06:05:45.268",
    "price": 6.82622093
  },
  {
    "symbol": "Borealis",
    "date": "2018-07-30T06:05:49.567",
    "price": 164.9189474
  },
  {
    "symbol": "Koronis",
    "date": "2018-07-30T06:05:49.567",
    "price": 37.13071429
  },
  {
    "symbol": "Lunatic",
    "date": "2018-07-30T06:05:49.567",
    "price": 31.99142857
  },
  {
    "symbol": "Celestial",
    "date": "2018-07-30T06:05:49.567",
    "price": 28.24142857
  },
  {
    "symbol": "Deuteronic",
    "date": "2018-07-30T06:05:49.567",
    "price": 265.2731818
  },
  {
    "symbol": "Floral",
    "date": "2018-07-30T06:05:49.605",
    "price": 28.52166667
  },
  {
    "symbol": "Borealis",
    "date": "2018-07-30T06:05:49.628",
    "price": 10.72277496
  },
  {
    "symbol": "Eclipse",
    "date": "2018-07-30T06:05:49.633",
    "price": 67.9
  },
  {
    "symbol": "Jupiter",
    "date": "2018-07-30T06:05:49.637",
    "price": 980.285
  },
  {
    "symbol": "Lunatic",
    "date": "2018-07-30T06:05:49.638",
    "price": 254.3042857
  },
  {
    "symbol": "Koronis",
    "date": "2018-07-30T06:05:49.661",
    "price": 1286.075
  },
  {
    "symbol": "Galactia",
    "date": "2018-07-30T06:05:49.674",
    "price": 7373.69
  },
  {
    "symbol": "Koronis",
    "date": "2018-07-30T06:05:49.674",
    "price": 5.650888889
  },
  {
    "symbol": "Borealis",
    "date": "2018-07-30T06:05:49.674",
    "price": 209.0436667
  },
  {
    "symbol": "Jupiter",
    "date": "2018-07-30T06:05:49.674",
    "price": 111.174
  },
  {
    "symbol": "Eclipse",
    "date": "2018-07-30T06:05:49.674",
    "price": 786.3669231
  },
  {
    "symbol": "Lunatic",
    "date": "2018-07-30T06:05:49.675",
    "price": 8.746372549
  },
  {
    "symbol": "Floral",
    "date": "2018-07-30T06:05:49.693",
    "price": 45.94181818
  },
  {
    "symbol": "Celestial",
    "date": "2018-07-30T06:05:49.695",
    "price": 20.175
  },
  {
    "symbol": "Floral",
    "date": "2018-07-30T06:05:49.695",
    "price": 2.744615385
  },
  {
    "symbol": "Eclipse",
    "date": "2018-07-30T06:05:58.561",
    "price": 5155.815
  },
  {
    "symbol": "Interstella",
    "date": "2018-07-30T06:05:58.697",
    "price": 3045.11
  },
  {
    "symbol": "Floral",
    "date": "2018-07-30T06:05:58.698",
    "price": 30.865625
  },
  {
    "symbol": "Interstella",
    "date": "2018-07-30T06:05:58.698",
    "price": 176.7617647
  },
  {
    "symbol": "Koronis",
    "date": "2018-07-30T06:05:58.850",
    "price": 214.1575
  },
  {
    "symbol": "Galactia",
    "date": "2018-07-30T06:05:58.850",
    "price": 88.83207317
  },
  {
    "symbol": "Jupiter",
    "date": "2018-07-30T06:05:58.850",
    "price": 7.948444444
  },
  {
    "symbol": "Borealis",
    "date": "2018-07-30T06:05:58.888",
    "price": 32.03954545
  },
  {
    "symbol": "Interstella",
    "date": "2018-07-30T06:05:58.888",
    "price": 270.2972727
  },
  {
    "symbol": "Borealis",
    "date": "2018-07-30T06:05:58.888",
    "price": 184.7332353
  },
  {
    "symbol": "Lunatic",
    "date": "2018-07-30T06:05:58.888",
    "price": 35.8362
  },
  {
    "symbol": "Lunatic",
    "date": "2018-07-30T06:05:58.890",
    "price": 181
  },
  {
    "symbol": "Galactia",
    "date": "2018-07-30T06:05:58.890",
    "price": 21.10374269
  },
  {
    "symbol": "Deuteronic",
    "date": "2018-07-30T06:05:58.891",
    "price": 150.3641026
  },
  {
    "symbol": "Jupiter",
    "date": "2018-07-30T06:05:58.891",
    "price": 3.992502503
  },
  {
    "symbol": "Lunatic",
    "date": "2018-07-30T06:05:58.891",
    "price": 5.87283871
  },
  {
    "symbol": "Interstella",
    "date": "2018-07-30T06:05:58.891",
    "price": 586.382
  },
  {
    "symbol": "Jupiter",
    "date": "2018-07-30T06:05:58.891",
    "price": 33.93697479
  },
  {
    "symbol": "Astronomica",
    "date": "2018-07-30T06:05:58.891",
    "price": 38.788375
  },
  {
    "symbol": "Interstella",
    "date": "2018-07-30T06:05:58.891",
    "price": 32.80033333
  },
  {
    "symbol": "Lunatic",
    "date": "2018-07-30T06:05:58.891",
    "price": 28.54968254
  },
  {
    "symbol": "Galactia",
    "date": "2018-07-30T06:05:58.894",
    "price": 18.61205729
  },
  {
    "symbol": "Galactia",
    "date": "2018-07-30T06:05:58.895",
    "price": 2399.043333
  },
  {
    "symbol": "Celestial",
    "date": "2018-07-30T06:05:59.003",
    "price": 231.462
  },
  {
    "symbol": "Lunatic",
    "date": "2018-07-30T06:05:59.015",
    "price": 226.4
  },
  {
    "symbol": "Koronis",
    "date": "2018-07-30T06:05:59.015",
    "price": 6.634757033
  },
  {
    "symbol": "Lunatic",
    "date": "2018-07-30T06:05:59.017",
    "price": 24.63364865
  },
  {
    "symbol": "Floral",
    "date": "2018-07-30T06:05:59.017",
    "price": 48.715
  },
  {
    "symbol": "Borealis",
    "date": "2018-07-30T06:06:00.072",
    "price": 79.76628205
  },
  {
    "symbol": "Deuteronic",
    "date": "2018-07-30T06:06:00.128",
    "price": 5888.26
  },
  {
    "symbol": "Deuteronic",
    "date": "2018-07-30T06:06:00.131",
    "price": 44.61853846
  },
  {
    "symbol": "Galactia",
    "date": "2018-07-30T06:06:00.203",
    "price": 647.46
  },
  {
    "symbol": "Deuteronic",
    "date": "2018-07-30T06:06:00.206",
    "price": 12.81528634
  },
  {
    "symbol": "Borealis",
    "date": "2018-07-30T06:06:00.206",
    "price": 440.5807143
  },
  {
    "symbol": "Astronomica",
    "date": "2018-07-30T06:06:00.226",
    "price": 93.08757576
  },
  {
    "symbol": "Koronis",
    "date": "2018-07-30T06:06:00.232",
    "price": 53.47520833
  },
  {
    "symbol": "Floral",
    "date": "2018-07-30T06:06:00.236",
    "price": 1.667508532
  },
  {
    "symbol": "Koronis",
    "date": "2018-07-30T06:06:00.236",
    "price": 3.123588163
  },
  {
    "symbol": "Astronomica",
    "date": "2018-07-30T06:06:02.042",
    "price": 3106.21
  },
  {
    "symbol": "Eclipse",
    "date": "2018-07-30T06:06:02.043",
    "price": 67.12716129
  },
  {
    "symbol": "Deuteronic",
    "date": "2018-07-30T06:06:02.043",
    "price": 5840.34
  },
  {
    "symbol": "Galactia",
    "date": "2018-07-30T06:06:02.043",
    "price": 7041.79
  },
  {
    "symbol": "Deuteronic",
    "date": "2018-07-30T06:06:02.044",
    "price": 42.5242029
  },
  {
    "symbol": "Borealis",
    "date": "2018-07-30T06:06:02.046",
    "price": 18.7625
  },
  {
    "symbol": "Galactia",
    "date": "2018-07-30T06:06:02.047",
    "price": 15.55289532
  },
  {
    "symbol": "Interstella",
    "date": "2018-07-30T06:06:02.049",
    "price": 3.495594238
  },
  {
    "symbol": "Celestial",
    "date": "2018-07-30T06:06:02.049",
    "price": 12.81384615
  },
  {
    "symbol": "Deuteronic",
    "date": "2018-07-30T06:06:02.049",
    "price": 53.05153153
  },
  {
    "symbol": "Floral",
    "date": "2018-07-30T06:06:02.050",
    "price": 34.54214286
  },
  {
    "symbol": "Koronis",
    "date": "2018-07-30T06:06:02.050",
    "price": 37.02985507
  },
  {
    "symbol": "Floral",
    "date": "2018-07-30T06:06:02.050",
    "price": 15.1796875
  },
  {
    "symbol": "Floral",
    "date": "2018-07-30T06:06:02.050",
    "price": 2.114913043
  },
  {
    "symbol": "Jupiter",
    "date": "2018-07-30T06:06:02.066",
    "price": 4.785053763
  },
  {
    "symbol": "Heliosphere",
    "date": "2018-07-30T06:06:02.066",
    "price": 1022.3
  },
  {
    "symbol": "Astronomica",
    "date": "2018-07-30T06:06:02.066",
    "price": 7.679025
  },
  {
    "symbol": "Galactia",
    "date": "2018-07-30T06:06:02.066",
    "price": 864.06125
  },
  {
    "symbol": "Astronomica",
    "date": "2018-07-30T06:06:02.066",
    "price": 1551.125
  },
  {
    "symbol": "Lunatic",
    "date": "2018-07-30T06:06:02.066",
    "price": 12.95887324
  },
  {
    "symbol": "Celestial",
    "date": "2018-07-30T06:06:02.066",
    "price": 4.051034483
  },
  {
    "symbol": "Jupiter",
    "date": "2018-07-30T06:06:02.066",
    "price": 176.3826087
  },
  {
    "symbol": "Lunatic",
    "date": "2018-07-30T06:06:02.067",
    "price": 41.99772727
  },
  {
    "symbol": "Borealis",
    "date": "2018-07-30T06:06:02.069",
    "price": 23.53078652
  },
  {
    "symbol": "Interstella",
    "date": "2018-07-30T06:06:02.070",
    "price": 17.12047619
  },
  {
    "symbol": "Galactia",
    "date": "2018-07-30T06:06:02.070",
    "price": 211.4227273
  },
  {
    "symbol": "Heliosphere",
    "date": "2018-07-30T06:06:02.077",
    "price": 69.53793893
  },
  {
    "symbol": "Jupiter",
    "date": "2018-07-30T06:06:02.077",
    "price": 8.511962025
  },
  {
    "symbol": "Astronomica",
    "date": "2018-07-30T06:06:02.079",
    "price": 13.28917749
  },
  {
    "symbol": "Interstella",
    "date": "2018-07-30T06:06:02.079",
    "price": 7.87175
  },
  {
    "symbol": "Heliosphere",
    "date": "2018-07-30T06:06:02.079",
    "price": 9205.88
  },
  {
    "symbol": "Jupiter",
    "date": "2018-07-30T06:06:02.079",
    "price": 667.1983333
  },
  {
    "symbol": "Heliosphere",
    "date": "2018-07-30T06:06:02.079",
    "price": 303.9243333
  },
  {
    "symbol": "Celestial",
    "date": "2018-07-30T06:06:02.079",
    "price": 19.4095
  },
  {
    "symbol": "Eclipse",
    "date": "2018-07-30T06:06:02.095",
    "price": 514.5245
  },
  {
    "symbol": "Floral",
    "date": "2018-07-30T06:06:02.101",
    "price": 49.575
  },
  {
    "symbol": "Interstella",
    "date": "2018-07-30T06:06:02.101",
    "price": 116.5329167
  },
  {
    "symbol": "Astronomica",
    "date": "2018-07-30T06:06:02.101",
    "price": 112.5540741
  },
  {
    "symbol": "Borealis",
    "date": "2018-07-30T06:06:02.101",
    "price": 53.07615385
  },
  {
    "symbol": "Deuteronic",
    "date": "2018-07-30T06:06:02.102",
    "price": 48.76865546
  },
  {
    "symbol": "Eclipse",
    "date": "2018-07-30T06:06:02.102",
    "price": 5090.645
  },
  {
    "symbol": "Galactia",
    "date": "2018-07-30T06:06:02.102",
    "price": 15.24479029
  },
  {
    "symbol": "Floral",
    "date": "2018-07-30T06:06:02.102",
    "price": 121.6025
  },
  {
    "symbol": "Galactia",
    "date": "2018-07-30T06:06:02.203",
    "price": 24.96737226
  }
]